tests/testfiles/SPI_Master/SPI_Master.vcd
$date
	Fri Jul 14 13:14:18 2023
$end
$version
	Icarus Verilog
$end
$timescale
	1s
$end
$scope module SPI_MasterTB $end
$var wire 1 ! slave_start $end
$var wire 8 " data_read [7:0] $end
$var wire 1 # SCLK $end
$var wire 1 $ MOSI $end
$var wire 1 % CS3 $end
$var wire 1 & CS2 $end
$var wire 1 ' CS1 $end
$var reg 1 ( MISO $end
$var reg 8 ) MISO_Stream [7:0] $end
$var reg 1 * check $end
$var reg 1 + clk $end
$var reg 1 , cpha $end
$var reg 1 - cpol $end
$var reg 8 . data_in [7:0] $end
$var reg 8 / expected_MOSI [7:0] $end
$var reg 8 0 found_MOSI [7:0] $end
$var reg 1 1 load $end
$var reg 2 2 slave_address [1:0] $end
$var reg 1 3 start $end
$var integer 32 4 i [31:0] $end
$var integer 32 5 iterator [31:0] $end
$scope module uut $end
$var wire 1 ( MISO $end
$var wire 1 + clk $end
$var wire 1 , cpha $end
$var wire 1 - cpol $end
$var wire 8 6 data_to_write [7:0] $end
$var wire 1 1 load $end
$var wire 2 7 slave_address [1:0] $end
$var wire 1 3 start $end
$var reg 1 8 CPHA $end
$var reg 1 9 CPOL $end
$var reg 1 ' CS1 $end
$var reg 1 & CS2 $end
$var reg 1 % CS3 $end
$var reg 1 $ MOSI $end
$var reg 1 # SCLK $end
$var reg 1 : communication_flag $end
$var reg 8 ; data_read [7:0] $end
$var reg 1 < sampled $end
$var reg 1 = sclk_old $end
$var reg 1 ! slave_start $end
$var reg 8 > transmission_buffer [7:0] $end
$var integer 32 ? count [31:0] $end
$var integer 32 @ countr [31:0] $end
$var integer 32 A transmission_iterator [31:0] $end
$scope task Generate_SCLK $end
$upscope $end
$scope task read_write $end
$upscope $end
$upscope $end
$scope task testMode0 $end
$upscope $end
$scope task testMode1 $end
$upscope $end
$scope task testMode2 $end
$upscope $end
$scope task testMode3 $end
$upscope $end
$upscope $end
$enddefinitions $end
#0
$dumpvars
b0 A
b0 @
b0 ?
bx >
x=
1<
bx ;
1:
x9
x8
b0 7
b10100101 6
bx 5
bx 4
13
b0 2
x1
bx 0
bx /
b10100101 .
0-
0,
0+
0*
b10111010 )
x(
x'
x&
x%
x$
x#
bx "
x!
$end
#2
b1 @
1$
0'
1&
1%
0<
b1 ?
0#
08
09
0:
b10100101 >
b10100101 /
11
1+
#4
b0 5
03
01
0+
#6
b10 @
b10100100 >
bx0 "
bx0 ;
b10 ?
1<
1!
1#
0=
bx1 0
0(
1+
#8
0+
#10
0$
b1 @
b1 A
b11 ?
0#
1=
1+
#12
b1 5
bx01 0
0+
#14
b10 @
b10100110 >
bx10 "
bx10 ;
b100 ?
1#
0=
1(
1+
#16
0+
#18
1$
b1 @
b10 A
b101 ?
0#
1=
1+
#20
b10 5
bx101 0
0+
#22
b10 @
b10100010 >
bx010 "
bx010 ;
b110 ?
1#
0=
0(
1+
#24
0+
#26
0$
b1 @
b11 A
b111 ?
0#
1=
1+
#28
b11 5
bx0101 0
0+
#30
b10 @
b10101010 >
bx1010 "
bx1010 ;
b1000 ?
1#
0=
1(
1+
#32
0+
#34
b1 @
b100 A
b1001 ?
0#
1=
1+
#36
b100 5
bx00101 0
0+
#38
b10 @
b10111010 >
bx11010 "
bx11010 ;
b1010 ?
1#
0=
1+
#40
0+
#42
1$
b1 @
b101 A
b1011 ?
0#
1=
1+
#44
b101 5
bx100101 0
0+
#46
b10 @
bx111010 "
bx111010 ;
b1100 ?
1#
0=
1+
#48
0+
#50
0$
b1 @
b110 A
b1101 ?
0#
1=
1+
#52
b110 5
bx0100101 0
0+
#54
b10 @
bx0111010 "
bx0111010 ;
b1110 ?
1#
0=
0(
1+
#56
0+
#58
1$
b1 @
b111 A
b1111 ?
0#
1=
1+
#60
b111 5
b10100101 0
0+
#62
b10 @
b10111010 "
b10111010 ;
b10000 ?
1#
0=
1(
1+
#64
0+
#66
1:
x$
b1 @
b1000 A
b10001 ?
0#
1=
1+
#68
b1000 5
0+
#70
b1000 4
#72
0$
0&
1'
1#
b0 A
19
0:
0<
b1 @
b1 ?
0!
b11000010 >
b11000010 /
b1 2
b1 7
b10100111 )
b11000010 .
b11000010 6
11
1+
13
1-
#74
01
03
0+
#76
b10 ?
0#
1+
#78
b0 5
b10100100 0
0+
#80
b10 @
b11000011 >
b10111011 "
b10111011 ;
1!
1<
1#
0=
1+
#82
0+
#84
1$
b1 @
b1 A
b11 ?
0#
1=
1+
#86
b1 5
b10100110 0
0+
#88
b10 @
b100 ?
1#
0=
1+
#90
0+
#92
0$
b1 @
b10 A
b101 ?
0#
1=
1+
#94
b10 5
b10100010 0
0+
#96
b10 @
b11000111 >
b10111111 "
b10111111 ;
b110 ?
1#
0=
1+
#98
0+
#100
b1 @
b11 A
b111 ?
0#
1=
1+
#102
b11 5
0+
#104
b10 @
b10110111 "
b10110111 ;
b1000 ?
1#
0=
0(
1+
#106
0+
#108
b1 @
b100 A
b1001 ?
0#
1=
1+
#110
b100 5
0+
#112
b10 @
b10100111 "
b10100111 ;
b1010 ?
1#
0=
1+
#114
0+
#116
b1 @
b101 A
b1011 ?
0#
1=
1+
#118
b101 5
b10000010 0
0+
#120
b10 @
b11100111 >
b1100 ?
1#
0=
1(
1+
#122
0+
#124
1$
b1 @
b110 A
b1101 ?
0#
1=
1+
#126
b110 5
b11000010 0
0+
#128
b10 @
b10100111 >
b1110 ?
1#
0=
0(
1+
#130
0+
#132
b1 @
b111 A
b1111 ?
0#
1=
1+
#134
b111 5
0+
#136
b10 @
b10000 ?
1#
0=
1(
1+
#138
0+
#140
1:
x$
b1 @
b1000 A
b10001 ?
0#
1=
1+
#142
b1000 5
0+
#144
b1000 4
#146
0&
b0 A
18
09
0:
0<
b0 @
b1 ?
0!
b10100100 )
b10110101 .
b10110101 6
0+
0-
1,
13
#148
b1 @
1$
b10 ?
1<
1!
1#
0=
b10110101 >
b10110101 /
11
1+
#150
b0 5
03
01
0+
#152
b10 @
b11 ?
0#
1=
1+
#154
b11000011 0
0+
#156
0$
b1 @
b1 A
b100 ?
1#
0=
0(
1+
#158
b1 5
0+
#160
b10 @
b10100101 "
b10100101 ;
b101 ?
0#
1=
1+
#162
b11000001 0
0+
#164
1$
b1 @
b10 A
b110 ?
1#
0=
1+
#166
b10 5
0+
#168
b10 @
b10110001 >
b10100001 "
b10100001 ;
b111 ?
0#
1=
1+
#170
b11000101 0
0+
#172
0$
b1 @
b11 A
b1000 ?
1#
0=
1(
1+
#174
b11 5
0+
#176
b10 @
b10111001 >
b10101001 "
b10101001 ;
b1001 ?
0#
1=
1+
#178
0+
#180
1$
b1 @
b100 A
b1010 ?
1#
0=
0(
1+
#182
b100 5
0+
#184
b10 @
b10101001 >
b1011 ?
0#
1=
1+
#186
b11010101 0
0+
#188
b1 @
b101 A
b1100 ?
1#
0=
1+
#190
b101 5
0+
#192
b10 @
b10001001 >
b10001001 "
b10001001 ;
b1101 ?
0#
1=
1+
#194
b11110101 0
0+
#196
0$
b1 @
b110 A
b1110 ?
1#
0=
1(
1+
#198
b110 5
0+
#200
b10 @
b11001001 >
b11001001 "
b11001001 ;
b1111 ?
0#
1=
1+
#202
b10110101 0
0+
#204
1$
b1 @
b111 A
b10000 ?
1#
0=
0(
1+
#206
b111 5
0+
#208
1:
b10 @
b1001001 >
b1001001 "
b1001001 ;
b10001 ?
0#
1=
1+
#210
0+
#212
b0 @
b0 ?
0!
1(
1+
#214
b1000 5
0+
#216
1*
b1000 4
#218
0%
1&
0<
b1 ?
1#
b0 A
19
0:
b10010100 >
b10010100 /
b10 2
b10 7
b10111010 )
b10010100 .
b10010100 6
11
1+
1-
0*
13
#220
03
01
0+
#222
b10 ?
0#
b0 5
1+
#224
0+
#226
b1 @
0$
1!
1<
1#
0=
1+
#228
b10110100 0
0+
#230
b10 @
b1001000 "
b1001000 ;
b11 ?
0#
1=
b1 5
0(
1+
#232
0+
#234
b1 @
b1 A
b100 ?
1#
0=
1+
#236
0+
#238
b10 @
b10010110 >
b1001010 "
b1001010 ;
b101 ?
0#
1=
b10 5
1(
1+
#240
0+
#242
1$
b1 @
b10 A
b110 ?
1#
0=
1+
#244
0+
#246
b10 @
b10010010 >
b111 ?
0#
1=
b11 5
0(
1+
#248
0+
#250
0$
b1 @
b11 A
b1000 ?
1#
0=
1+
#252
0+
#254
b10 @
b10011010 >
b1001 ?
0#
1=
b100 5
1(
1+
#256
0+
#258
1$
b1 @
b100 A
b1010 ?
1#
0=
1+
#260
0+
#262
b10 @
b1011010 "
b1011010 ;
b1011 ?
0#
1=
b101 5
1+
#264
0+
#266
0$
b1 @
b101 A
b1100 ?
1#
0=
1+
#268
b10010100 0
0+
#270
b10 @
b10111010 >
b1111010 "
b1111010 ;
b1101 ?
0#
1=
b110 5
1+
#272
0+
#274
b1 @
b110 A
b1110 ?
1#
0=
1+
#276
0+
#278
b10 @
b111010 "
b111010 ;
b1111 ?
0#
1=
b111 5
0(
1+
#280
0+
#282
1$
b1 @
b111 A
b10000 ?
1#
0=
1+
#284
0+
#286
1:
b10 @
b10111010 "
b10111010 ;
b10001 ?
0#
1=
b1000 5
1(
1+
#288
b1000 4
