tests/testfiles/fft/fft16.vcd
$date
  Mon Dec  4 15:53:43 2023
$end
$version
  GHDL v0
$end
$timescale
  1 fs
$end
$scope module standard $end
$upscope $end
$scope module std_logic_1164 $end
$upscope $end
$scope module numeric_std $end
$upscope $end
$scope module math_real $end
$upscope $end
$scope module fft16_tb $end
$var reg 1 ! rstn $end
$var reg 1 " ena $end
$var reg 5 # xr[4:0] $end
$var reg 5 $ xi[4:0] $end
$var reg 16 % qr[15:0] $end
$var reg 16 & qi[15:0] $end
$var reg 1 ' clk $end
$scope module dut $end
$var reg 1 ( clk $end
$var reg 1 ) rstn $end
$var reg 1 * ena $end
$var reg 5 + xr[4:0] $end
$var reg 5 , xi[4:0] $end
$var reg 16 - qr[15:0] $end
$var reg 16 . qi[15:0] $end
$var reg 2 / do_rot[1:0] $end
$var reg 4 0 do_feed[3:0] $end
$var reg 6 1 dr_bf4[5:0] $end
$var reg 6 2 di_bf4[5:0] $end
$var reg 7 3 dr_bf3[6:0] $end
$var reg 7 4 di_bf3[6:0] $end
$var reg 7 5 wr_16[6:0] $end
$var reg 7 6 wi_16[6:0] $end
$var reg 14 7 dr_mlt[13:0] $end
$var reg 14 8 di_mlt[13:0] $end
$var reg 15 9 dr_bf2[14:0] $end
$var reg 15 : di_bf2[14:0] $end
$var reg 16 ; dr_bf1[15:0] $end
$var reg 16 < di_bf1[15:0] $end
$var reg 4 = addr[3:0] $end
$var reg 4 > cnt[3:0] $end
$scope module bf4 $end
$var reg 1 ? clk $end
$var reg 1 @ rstn $end
$var reg 1 A do_feed $end
$var reg 1 B ena $end
$var reg 5 C ar[4:0] $end
$var reg 5 D ai[4:0] $end
$var reg 6 E qr[5:0] $end
$var reg 6 F qi[5:0] $end
$var reg 6 G mi_r[5:0] $end
$var reg 6 H mi_i[5:0] $end
$var reg 6 I mo_r[5:0] $end
$var reg 6 J mo_i[5:0] $end
$comment mem_r is not handled $end
$comment mem_i is not handled $end
$var reg 6 K sum_r[5:0] $end
$var reg 6 L sum_i[5:0] $end
$var reg 6 M dif_r[5:0] $end
$var reg 6 N dif_i[5:0] $end
$upscope $end
$scope module bf3 $end
$var reg 1 O clk $end
$var reg 1 P rstn $end
$var reg 1 Q do_feed $end
$var reg 1 R do_rot $end
$var reg 1 S ena $end
$var reg 6 T ar[5:0] $end
$var reg 6 U ai[5:0] $end
$var reg 7 V qr[6:0] $end
$var reg 7 W qi[6:0] $end
$var reg 7 X mi_r[6:0] $end
$var reg 7 Y mi_i[6:0] $end
$var reg 7 Z mo_r[6:0] $end
$var reg 7 [ mo_i[6:0] $end
$var reg 6 \ rot_r[5:0] $end
$var reg 6 ] rot_i[5:0] $end
$var reg 6 ^ rot_is[5:0] $end
$comment mem_r is not handled $end
$comment mem_i is not handled $end
$var reg 7 _ sum_r[6:0] $end
$var reg 7 ` sum_i[6:0] $end
$var reg 7 a dif_r[6:0] $end
$var reg 7 b dif_i[6:0] $end
$upscope $end
$scope module cmult_16 $end
$var reg 7 c ar[6:0] $end
$var reg 7 d ai[6:0] $end
$var reg 7 e br[6:0] $end
$var reg 7 f bi[6:0] $end
$var reg 14 g qr[13:0] $end
$var reg 14 h qi[13:0] $end
$var reg 14 i ar_br[13:0] $end
$var reg 14 j ar_bi[13:0] $end
$var reg 14 k ai_br[13:0] $end
$var reg 14 l ai_bi[13:0] $end
$var reg 15 m qr_e[14:0] $end
$var reg 15 n qi_e[14:0] $end
$upscope $end
$scope module rom16_1 $end
$var reg 1 o clk $end
$var reg 1 p rstn $end
$var reg 1 q ena $end
$var reg 4 r addr[3:0] $end
$var reg 7 s wr_16[6:0] $end
$var reg 7 t wi_16[6:0] $end
$upscope $end
$scope module bf2 $end
$var reg 1 u clk $end
$var reg 1 v rstn $end
$var reg 1 w do_feed $end
$var reg 1 x ena $end
$var reg 14 y ar[13:0] $end
$var reg 14 z ai[13:0] $end
$var reg 15 { qr[14:0] $end
$var reg 15 | qi[14:0] $end
$var reg 15 } mi_r[14:0] $end
$var reg 15 !" mi_i[14:0] $end
$var reg 15 "" mo_r[14:0] $end
$var reg 15 #" mo_i[14:0] $end
$comment mem_r is not handled $end
$comment mem_i is not handled $end
$var reg 15 $" sum_r[14:0] $end
$var reg 15 %" sum_i[14:0] $end
$var reg 15 &" dif_r[14:0] $end
$var reg 15 '" dif_i[14:0] $end
$upscope $end
$scope module bf1 $end
$var reg 1 (" clk $end
$var reg 1 )" rstn $end
$var reg 1 *" do_feed $end
$var reg 1 +" do_rot $end
$var reg 1 ," ena $end
$var reg 15 -" ar[14:0] $end
$var reg 15 ." ai[14:0] $end
$var reg 16 /" qr[15:0] $end
$var reg 16 0" qi[15:0] $end
$var reg 16 1" mi_r[15:0] $end
$var reg 16 2" mi_i[15:0] $end
$var reg 16 3" mo_r[15:0] $end
$var reg 16 4" mo_i[15:0] $end
$var reg 15 5" rot_r[14:0] $end
$var reg 15 6" rot_i[14:0] $end
$var reg 15 7" rot_is[14:0] $end
$comment mem_r is not handled $end
$comment mem_i is not handled $end
$var reg 16 8" sum_r[15:0] $end
$var reg 16 9" sum_i[15:0] $end
$var reg 16 :" dif_r[15:0] $end
$var reg 16 ;" dif_i[15:0] $end
$upscope $end
$upscope $end
$upscope $end
$enddefinitions $end
#0
0!
x"
bxxxxx #
bxxxxx $
b0000000000000000 %
b0000000000000000 &
1'
1(
0)
x*
bxxxxx +
bxxxxx ,
b0000000000000000 -
b0000000000000000 .
b00 /
b0000 0
b000000 1
b000000 2
b0000000 3
b0000000 4
b0111111 5
b0000000 6
b00000000000000 7
b00000000000000 8
b000000000000000 9
b000000000000000 :
b0000000000000000 ;
b0000000000000000 <
b0100 =
b0000 >
1?
0@
0A
xB
bxxxxx C
bxxxxx D
b000000 E
b000000 F
bxxxxxx G
bxxxxxx H
b000000 I
b000000 J
bxxxxxx K
bxxxxxx L
bxxxxxx M
bxxxxxx N
1O
0P
0Q
0R
xS
b000000 T
b000000 U
b0000000 V
b0000000 W
b0000000 X
b0000000 Y
b0000000 Z
b0000000 [
b000000 \
b000000 ]
bxxxxxx ^
b0000000 _
b0000000 `
b0000000 a
b0000000 b
b0000000 c
b0000000 d
b0111111 e
b0000000 f
b00000000000000 g
b00000000000000 h
b00000000000000 i
b00000000000000 j
b00000000000000 k
b00000000000000 l
b000000000000001 m
b000000000000001 n
1o
0p
xq
b0100 r
b0111111 s
b0000000 t
1u
0v
0w
xx
b00000000000000 y
b00000000000000 z
b000000000000000 {
b000000000000000 |
b000000000000000 }
b000000000000000 !"
b000000000000000 ""
b000000000000000 #"
b000000000000000 $"
b000000000000000 %"
b000000000000000 &"
b000000000000000 '"
1("
0)"
0*"
0+"
x,"
b000000000000000 -"
b000000000000000 ."
b0000000000000000 /"
b0000000000000000 0"
b0000000000000000 1"
b0000000000000000 2"
b0000000000000000 3"
b0000000000000000 4"
b000000000000000 5"
b000000000000000 6"
bxxxxxxxxxxxxxxx 7"
b0000000000000000 8"
b0000000000000000 9"
b0000000000000000 :"
b0000000000000000 ;"
#2000000
0'
0(
0?
0O
0o
0u
0("
#4000000
1'
1(
1?
1O
1o
1u
1("
#5000000
1!
1"
b00000 #
b00000 $
1)
1*
b00000 +
b00000 ,
1@
1B
b00000 C
b00000 D
b000000 G
b000000 H
b000000 K
b000000 L
b000000 M
b000000 N
1P
1S
1p
1q
1v
1x
1)"
1,"
#6000000
0'
0(
0?
0O
0o
0u
0("
#8000000
1'
1(
b01 /
b0001 0
b0101101 5
b1010011 6
b0101 =
b0001 >
1?
1O
b0101101 e
b1010011 f
1o
b0101 r
b0101101 s
b1010011 t
1u
1("
1*"
1+"
#10000000
0'
0(
0?
0O
0o
0u
0("
#12000000
1'
1(
b00 /
b0010 0
b0000000 5
b1000001 6
b0110 =
b0010 >
1?
1O
b0000000 e
b1000001 f
1o
b0110 r
b0000000 s
b1000001 t
1u
1w
1("
0*"
0+"
#14000000
0'
0(
0?
0O
0o
0u
0("
#16000000
b01000 #
1'
1(
b01000 +
b0011 0
b1010011 5
b1010011 6
b0111 =
b0011 >
1?
b01000 C
b001000 G
b001000 K
b111000 M
1O
b1010011 e
b1010011 f
1o
b0111 r
b1010011 s
b1010011 t
1u
1("
1*"
#18000000
0'
0(
0?
0O
0o
0u
0("
#20000000
b00000 #
1'
1(
b00000 +
b10 /
b0100 0
b0111111 5
b0000000 6
b1000 =
b0100 >
1?
b00000 C
b000000 G
b000000 K
b000000 M
1O
1Q
1R
b0111111 e
b0000000 f
1o
b1000 r
b0111111 s
b0000000 t
1u
0w
1("
0*"
#22000000
0'
0(
0?
0O
0o
0u
0("
#24000000
1'
1(
b11 /
b0101 0
b0111010 5
b1101000 6
b1001 =
b0101 >
1?
1O
b0111010 e
b1101000 f
1o
b1001 r
b0111010 s
b1101000 t
1u
1("
1*"
1+"
#26000000
0'
0(
0?
0O
0o
0u
0("
#28000000
1'
1(
b10 /
b0110 0
b0101101 5
b1010011 6
b1010 =
b0110 >
1?
1O
b0101101 e
b1010011 f
1o
b1010 r
b0101101 s
b1010011 t
1u
1w
1("
0*"
0+"
#30000000
0'
0(
0?
0O
0o
0u
0("
#32000000
1'
1(
b0111 0
b0011000 5
b1000110 6
b1011 =
b0111 >
1?
1O
b0011000 e
b1000110 f
1o
b1011 r
b0011000 s
b1000110 t
1u
1("
1*"
#34000000
0'
0(
0?
0O
0o
0u
0("
#36000000
1'
1(
b00 /
b1000 0
b0111111 5
b0000000 6
b1100 =
b1000 >
1?
1A
1O
0Q
0R
b0111111 e
b0000000 f
1o
b1100 r
b0111111 s
b0000000 t
1u
0w
1("
0*"
#38000000
0'
0(
0?
0O
0o
0u
0("
#40000000
1'
1(
b01 /
b1001 0
b0011000 5
b1000110 6
b1101 =
b1001 >
1?
1O
b0011000 e
b1000110 f
1o
b1101 r
b0011000 s
b1000110 t
1u
1("
1*"
1+"
#42000000
0'
0(
0?
0O
0o
0u
0("
#44000000
1'
1(
b00 /
b1010 0
b1010011 5
b1010011 6
b1110 =
b1010 >
1?
1O
b1010011 e
b1010011 f
1o
b1110 r
b1010011 s
b1010011 t
1u
1w
1("
0*"
0+"
#46000000
0'
0(
0?
0O
0o
0u
0("
#48000000
1'
1(
b1011 0
b001000 1
b1000110 5
b0011000 6
b1111 =
b1011 >
1?
b001000 E
b001000 G
b001000 I
b001000 K
b001000 M
1O
b001000 T
b0001000 X
b001000 \
b0001000 _
b1111000 a
b1000110 e
b0011000 f
1o
b1111 r
b1000110 s
b0011000 t
1u
1("
1*"
#50000000
0'
0(
0?
0O
0o
0u
0("
#52000000
1'
1(
b1100 0
b000000 1
b0000000 3
b0111111 5
b0000000 6
b00000000000000 7
b0000 =
b1100 >
1?
b000000 E
b000000 G
b000000 I
b000000 K
b000000 M
1O
1Q
b000000 T
b0000000 V
b0000000 X
b000000 \
b0000000 _
b0000000 a
b0000000 c
b0111111 e
b0000000 f
b00000000000000 g
b00000000000000 i
b000000000000001 m
1o
b0000 r
b0111111 s
b0000000 t
1u
0w
b00000000000000 y
b000000000000000 }
b000000000000000 $"
b000000000000000 &"
1("
0*"
#54000000
0'
0(
0?
0O
0o
0u
0("
#56000000
1'
1(
b01 /
b1101 0
b0001 =
b1101 >
1?
1O
1o
b0001 r
1u
1("
1*"
1+"
#58000000
0'
0(
0?
0O
0o
0u
0("
#60000000
1'
1(
b00 /
b1110 0
b0010 =
b1110 >
1?
1O
1o
b0010 r
1u
1w
1("
0*"
0+"
#62000000
0'
0(
0?
0O
0o
0u
0("
#64000000
b0000000011111100 %
1'
1(
b0000000011111100 -
b1111 0
b0001000 3
b00000011111100 7
b000000011111100 9
b0000000011111100 ;
b0011 =
b1111 >
1?
1O
b0001000 V
b0001000 X
b0001000 Z
b0001000 _
b0001000 a
b0001000 c
b00000011111100 g
b00000111111000 i
b000000111111001 m
1o
b0011 r
1u
b00000011111100 y
b000000011111100 {
b111111100000100 }
b000000011111100 $"
b111111100000100 &"
1("
1*"
b000000011111100 -"
b0000000011111100 /"
b1111111100000100 1"
b000000011111100 5"
b0000000011111100 8"
b1111111100000100 :"
#66000000
0'
0(
0?
0O
0o
0u
0("
#68000000
b1111111100000100 %
1'
1(
b1111111100000100 -
b0000 0
b0000000 3
b00000000000000 7
b000000000000000 9
b1111111100000100 ;
b0100 =
b0000 >
1?
0A
1O
0Q
b0000000 V
b0000000 X
b0000000 Z
b0000000 _
b0000000 a
b0000000 c
b00000000000000 g
b00000000000000 i
b000000000000001 m
1o
b0100 r
1u
0w
b00000000000000 y
b000000000000000 {
b000000000000000 }
b000000000000000 $"
b000000000000000 &"
1("
0*"
b000000000000000 -"
b1111111100000100 /"
b0000000000000000 1"
b1111111100000100 3"
b000000000000000 5"
b1111111100000100 8"
b1111111100000100 :"
#70000000
0'
0(
0?
0O
0o
0u
0("
#72000000
b0000000000000000 %
b0000000011111100 &
1'
1(
b0000000000000000 -
b0000000011111100 .
b01 /
b0001 0
b0101101 5
b1010011 6
b111111100000100 9
b0000000000000000 ;
b0000000011111100 <
b0101 =
b0001 >
1?
1O
b0101101 e
b1010011 f
1o
b0101 r
b0101101 s
b1010011 t
1u
b111111100000100 {
b111111100000100 ""
b111111100000100 $"
b111111100000100 &"
1("
1*"
1+"
b111111100000100 -"
b0000000000000000 /"
b0000000011111100 0"
b0000000000000000 1"
b1111111100000100 2"
b0000000000000000 3"
b000000011111100 6"
b0000000000000000 8"
b0000000011111100 9"
b0000000000000000 :"
b1111111100000100 ;"
#74000000
0'
0(
0?
0O
0o
0u
0("
#76000000
b1111111100000100 &
1'
1(
b1111111100000100 .
b00 /
b0010 0
b0000000 5
b1000001 6
b000000000000000 9
b1111111100000100 <
b0110 =
b0010 >
1?
1O
b0000000 e
b1000001 f
1o
b0110 r
b0000000 s
b1000001 t
1u
1w
b000000000000000 {
b000000000000000 }
b000000000000000 ""
b000000000000000 $"
b000000000000000 &"
1("
0*"
0+"
b000000000000000 -"
b1111111100000100 0"
b0000000000000000 1"
b0000000000000000 2"
b1111111100000100 4"
b000000000000000 5"
b000000000000000 6"
b0000000000000000 8"
b1111111100000100 9"
b0000000000000000 :"
b1111111100000100 ;"
#78000000
0'
0(
0?
0O
0o
0u
0("
#80000000
b1111111101001100 %
b1111111101001100 &
1'
1(
b1111111101001100 -
b1111111101001100 .
b0011 0
b001000 1
b0001000 3
b1010011 5
b1010011 6
b11111101001100 7
b11111101001100 8
b111111101001100 9
b111111101001100 :
b1111111101001100 ;
b1111111101001100 <
b0111 =
b0011 >
1?
b001000 E
b001000 I
b001000 K
b001000 M
1O
b001000 T
b0001000 V
b0001000 X
b0001000 Z
b001000 \
b0010000 _
b0000000 a
b0001000 c
b1010011 e
b1010011 f
b11111101001100 g
b11111101001100 h
b11111010011000 i
b11111010011000 j
b111111010011001 m
b111111010011001 n
1o
b0111 r
b1010011 s
b1010011 t
1u
b11111101001100 y
b11111101001100 z
b111111101001100 {
b111111101001100 |
b000000010110100 }
b000000010110100 !"
b111111101001100 $"
b111111101001100 %"
b000000010110100 &"
b000000010110100 '"
1("
1*"
b111111101001100 -"
b111111101001100 ."
b1111111101001100 /"
b1111111101001100 0"
b0000000010110100 1"
b0000000010110100 2"
b0000000000000000 4"
b111111101001100 5"
b111111101001100 6"
b1111111101001100 8"
b1111111101001100 9"
b0000000010110100 :"
b0000000010110100 ;"
#82000000
0'
0(
0?
0O
0o
0u
0("
#84000000
b0000000010110100 %
b0000000010110100 &
1'
1(
b0000000010110100 -
b0000000010110100 .
b10 /
b0100 0
b000000 1
b0000000 3
b0111111 5
b0000000 6
b00000000000000 7
b00000000000000 8
b000000000000000 9
b000000000000000 :
b0000000010110100 ;
b0000000010110100 <
b1000 =
b0100 >
1?
b000000 E
b000000 I
b000000 K
b000000 M
1O
1Q
1R
b000000 T
b0000000 V
b0000000 X
b0000000 Z
b000000 \
b0000000 _
b0000000 a
b0000000 c
b0111111 e
b0000000 f
b00000000000000 g
b00000000000000 h
b00000000000000 i
b00000000000000 j
b000000000000001 m
b000000000000001 n
1o
b1000 r
b0111111 s
b0000000 t
1u
0w
b00000000000000 y
b00000000000000 z
b000000000000000 {
b000000000000000 |
b000000000000000 }
b000000000000000 !"
b000000000000000 $"
b000000000000000 %"
b000000000000000 &"
b000000000000000 '"
1("
0*"
b000000000000000 -"
b000000000000000 ."
b0000000010110100 /"
b0000000010110100 0"
b0000000000000000 1"
b0000000000000000 2"
b0000000010110100 3"
b0000000010110100 4"
b000000000000000 5"
b000000000000000 6"
b0000000010110100 8"
b0000000010110100 9"
b0000000010110100 :"
b0000000010110100 ;"
#86000000
0'
0(
0?
0O
0o
0u
0("
#88000000
b0000000010110100 %
b1111111101001100 &
1'
1(
b0000000010110100 -
b1111111101001100 .
b11 /
b0101 0
b0111010 5
b1101000 6
b000000010110100 9
b000000010110100 :
b0000000010110100 ;
b1111111101001100 <
b1001 =
b0101 >
1?
1O
b0111010 e
b1101000 f
1o
b1001 r
b0111010 s
b1101000 t
1u
b000000010110100 {
b000000010110100 |
b000000010110100 ""
b000000010110100 #"
b000000010110100 $"
b000000010110100 %"
b000000010110100 &"
b000000010110100 '"
1("
1*"
1+"
b000000010110100 -"
b000000010110100 ."
b0000000010110100 /"
b1111111101001100 0"
b1111111101001100 1"
b0000000010110100 2"
b0000000000000000 3"
b0000000000000000 4"
b000000010110100 5"
b111111101001100 6"
b0000000010110100 8"
b1111111101001100 9"
b1111111101001100 :"
b0000000010110100 ;"
#90000000
0'
0(
0?
0O
0o
0u
0("
#92000000
b1111111101001100 %
b0000000010110100 &
1'
1(
b1111111101001100 -
b0000000010110100 .
b10 /
b0110 0
b0101101 5
b1010011 6
b000000000000000 9
b000000000000000 :
b1111111101001100 ;
b0000000010110100 <
b1010 =
b0110 >
1?
1O
b0101101 e
b1010011 f
1o
b1010 r
b0101101 s
b1010011 t
1u
1w
b000000000000000 {
b000000000000000 |
b000000000000000 }
b000000000000000 !"
b000000000000000 ""
b000000000000000 #"
b000000000000000 $"
b000000000000000 %"
b000000000000000 &"
b000000000000000 '"
1("
0*"
0+"
b000000000000000 -"
b000000000000000 ."
b1111111101001100 /"
b0000000010110100 0"
b0000000000000000 1"
b0000000000000000 2"
b1111111101001100 3"
b0000000010110100 4"
b000000000000000 5"
b000000000000000 6"
b1111111101001100 8"
b0000000010110100 9"
b1111111101001100 :"
b0000000010110100 ;"
#94000000
0'
0(
0?
0O
0o
0u
0("
#96000000
b0000000001100000 %
b1111111100011000 &
1'
1(
b0000000001100000 -
b1111111100011000 .
b0111 0
b0001000 3
b0011000 5
b1000110 6
b00000001100000 7
b11111100011000 8
b000000001100000 9
b111111100011000 :
b0000000001100000 ;
b1111111100011000 <
b1011 =
b0111 >
1?
1O
b0001000 V
b0001000 X
b0001000 Z
b0001000 _
b0001000 a
b0001000 c
b0011000 e
b1000110 f
b00000001100000 g
b11111100011000 h
b00000011000000 i
b11111000110000 j
b000000011000001 m
b111111000110001 n
1o
b1011 r
b0011000 s
b1000110 t
1u
b00000001100000 y
b11111100011000 z
b000000001100000 {
b111111100011000 |
b111111110100000 }
b000000011101000 !"
b000000001100000 $"
b111111100011000 %"
b111111110100000 &"
b000000011101000 '"
1("
1*"
b000000001100000 -"
b111111100011000 ."
b0000000001100000 /"
b1111111100011000 0"
b1111111110100000 1"
b0000000011101000 2"
b0000000000000000 3"
b0000000000000000 4"
b000000001100000 5"
b111111100011000 6"
b0000000001100000 8"
b1111111100011000 9"
b1111111110100000 :"
b0000000011101000 ;"
#98000000
0'
0(
0?
0O
0o
0u
0("
#100000000
b1111111110100000 %
b0000000011101000 &
1'
1(
b1111111110100000 -
b0000000011101000 .
b00 /
b1000 0
b0000000 3
b0111111 5
b0000000 6
b00000000000000 7
b00000000000000 8
b000000000000000 9
b000000000000000 :
b1111111110100000 ;
b0000000011101000 <
b1100 =
b1000 >
1?
1A
1O
0Q
0R
b0000000 V
b0000000 X
b0000000 Z
b0000000 _
b0000000 a
b0000000 c
b0111111 e
b0000000 f
b00000000000000 g
b00000000000000 h
b00000000000000 i
b00000000000000 j
b000000000000001 m
b000000000000001 n
1o
b1100 r
b0111111 s
b0000000 t
1u
0w
b00000000000000 y
b00000000000000 z
b000000000000000 {
b000000000000000 |
b000000000000000 }
b000000000000000 !"
b000000000000000 $"
b000000000000000 %"
b000000000000000 &"
b000000000000000 '"
1("
0*"
b000000000000000 -"
b000000000000000 ."
b1111111110100000 /"
b0000000011101000 0"
b0000000000000000 1"
b0000000000000000 2"
b1111111110100000 3"
b0000000011101000 4"
b000000000000000 5"
b000000000000000 6"
b1111111110100000 8"
b0000000011101000 9"
b1111111110100000 :"
b0000000011101000 ;"
#102000000
0'
0(
0?
0O
0o
0u
0("
#104000000
b0000000011101000 %
b0000000001100000 &
1'
1(
b0000000011101000 -
b0000000001100000 .
b01 /
b1001 0
b0011000 5
b1000110 6
b111111110100000 9
b000000011101000 :
b0000000011101000 ;
b0000000001100000 <
b1101 =
b1001 >
1?
1O
b0011000 e
b1000110 f
1o
b1101 r
b0011000 s
b1000110 t
1u
b111111110100000 {
b000000011101000 |
b111111110100000 ""
b000000011101000 #"
b111111110100000 $"
b000000011101000 %"
b111111110100000 &"
b000000011101000 '"
1("
1*"
1+"
b111111110100000 -"
b000000011101000 ."
b0000000011101000 /"
b0000000001100000 0"
b1111111100011000 1"
b1111111110100000 2"
b0000000000000000 3"
b0000000000000000 4"
b000000011101000 5"
b000000001100000 6"
b0000000011101000 8"
b0000000001100000 9"
b1111111100011000 :"
b1111111110100000 ;"
#106000000
0'
0(
0?
0O
0o
0u
0("
#108000000
b1111111100011000 %
b1111111110100000 &
1'
1(
b1111111100011000 -
b1111111110100000 .
b00 /
b1010 0
b1010011 5
b1010011 6
b000000000000000 9
b000000000000000 :
b1111111100011000 ;
b1111111110100000 <
b1110 =
b1010 >
1?
1O
b1010011 e
b1010011 f
1o
b1110 r
b1010011 s
b1010011 t
1u
1w
b000000000000000 {
b000000000000000 |
b000000000000000 }
b000000000000000 !"
b000000000000000 ""
b000000000000000 #"
b000000000000000 $"
b000000000000000 %"
b000000000000000 &"
b000000000000000 '"
1("
0*"
0+"
b000000000000000 -"
b000000000000000 ."
b1111111100011000 /"
b1111111110100000 0"
b0000000000000000 1"
b0000000000000000 2"
b1111111100011000 3"
b1111111110100000 4"
b000000000000000 5"
b000000000000000 6"
b1111111100011000 8"
b1111111110100000 9"
b1111111100011000 :"
b1111111110100000 ;"
#110000000
0'
0(
0?
0O
0o
0u
0("
#112000000
b1111111100011000 %
b0000000001100000 &
1'
1(
b1111111100011000 -
b0000000001100000 .
b1011 0
b0001000 3
b1000110 5
b0011000 6
b11111100011000 7
b00000001100000 8
b111111100011000 9
b000000001100000 :
b1111111100011000 ;
b0000000001100000 <
b1111 =
b1011 >
1?
1O
b0001000 V
b0001000 Z
b0001000 _
b0001000 a
b0001000 c
b1000110 e
b0011000 f
b11111100011000 g
b00000001100000 h
b11111000110000 i
b00000011000000 j
b111111000110001 m
b000000011000001 n
1o
b1111 r
b1000110 s
b0011000 t
1u
b11111100011000 y
b00000001100000 z
b111111100011000 {
b000000001100000 |
b000000011101000 }
b111111110100000 !"
b111111100011000 $"
b000000001100000 %"
b000000011101000 &"
b111111110100000 '"
1("
1*"
b111111100011000 -"
b000000001100000 ."
b1111111100011000 /"
b0000000001100000 0"
b0000000011101000 1"
b1111111110100000 2"
b0000000000000000 3"
b0000000000000000 4"
b111111100011000 5"
b000000001100000 6"
b1111111100011000 8"
b0000000001100000 9"
b0000000011101000 :"
b1111111110100000 ;"
#114000000
0'
0(
0?
0O
0o
0u
0("
#116000000
b0000000011101000 %
b1111111110100000 &
1'
1(
b0000000011101000 -
b1111111110100000 .
b1100 0
b0000000 3
b0111111 5
b0000000 6
b00000000000000 7
b00000000000000 8
b000000000000000 9
b000000000000000 :
b0000000011101000 ;
b1111111110100000 <
b0000 =
b1100 >
1?
1O
1Q
b0000000 V
b0000000 X
b0000000 Z
b0000000 _
b0000000 a
b0000000 c
b0111111 e
b0000000 f
b00000000000000 g
b00000000000000 h
b00000000000000 i
b00000000000000 j
b000000000000001 m
b000000000000001 n
1o
b0000 r
b0111111 s
b0000000 t
1u
0w
b00000000000000 y
b00000000000000 z
b000000000000000 {
b000000000000000 |
b000000000000000 }
b000000000000000 !"
b000000000000000 $"
b000000000000000 %"
b000000000000000 &"
b000000000000000 '"
1("
0*"
b000000000000000 -"
b000000000000000 ."
b0000000011101000 /"
b1111111110100000 0"
b0000000000000000 1"
b0000000000000000 2"
b0000000011101000 3"
b1111111110100000 4"
b000000000000000 5"
b000000000000000 6"
b0000000011101000 8"
b1111111110100000 9"
b0000000011101000 :"
b1111111110100000 ;"
#118000000
0'
0(
0?
0O
0o
0u
0("
#120000000
b1111111110100000 %
b1111111100011000 &
1'
1(
b1111111110100000 -
b1111111100011000 .
b01 /
b1101 0
b000000011101000 9
b111111110100000 :
b1111111110100000 ;
b1111111100011000 <
b0001 =
b1101 >
1?
1O
1o
b0001 r
1u
b000000011101000 {
b111111110100000 |
b000000011101000 ""
b111111110100000 #"
b000000011101000 $"
b111111110100000 %"
b000000011101000 &"
b111111110100000 '"
1("
1*"
1+"
b000000011101000 -"
b111111110100000 ."
b1111111110100000 /"
b1111111100011000 0"
b0000000001100000 1"
b0000000011101000 2"
b0000000000000000 3"
b0000000000000000 4"
b111111110100000 5"
b111111100011000 6"
b1111111110100000 8"
b1111111100011000 9"
b0000000001100000 :"
b0000000011101000 ;"
#122000000
0'
0(
0?
0O
0o
0u
0("
#124000000
b0000000001100000 %
b0000000011101000 &
1'
1(
b0000000001100000 -
b0000000011101000 .
b00 /
b1110 0
b000000000000000 9
b000000000000000 :
b0000000001100000 ;
b0000000011101000 <
b0010 =
b1110 >
1?
1O
1o
b0010 r
1u
1w
b000000000000000 {
b000000000000000 |
b000000000000000 }
b000000000000000 !"
b000000000000000 ""
b000000000000000 #"
b000000000000000 $"
b000000000000000 %"
b000000000000000 &"
b000000000000000 '"
1("
0*"
0+"
b000000000000000 -"
b000000000000000 ."
b0000000001100000 /"
b0000000011101000 0"
b0000000000000000 1"
b0000000000000000 2"
b0000000001100000 3"
b0000000011101000 4"
b000000000000000 5"
b000000000000000 6"
b0000000001100000 8"
b0000000011101000 9"
b0000000001100000 :"
b0000000011101000 ;"
#126000000
0'
0(
0?
0O
0o
0u
0("
#128000000
b0000000000000000 %
b0000000000000000 &
1'
1(
b0000000000000000 -
b0000000000000000 .
b1111 0
b0000000000000000 ;
b0000000000000000 <
b0011 =
b1111 >
1?
1O
1o
b0011 r
1u
1("
1*"
b0000000000000000 /"
b0000000000000000 0"
b0000000000000000 1"
b0000000000000000 2"
b0000000000000000 3"
b0000000000000000 4"
b0000000000000000 8"
b0000000000000000 9"
b0000000000000000 :"
b0000000000000000 ;"
