tests/testfiles/fft/fft16_appx.vcd
$date
  Fri Sep 29 11:29:27 2023
$end
$version
  GHDL v0
$end
$timescale
  1 fs
$end
$scope module standard $end
$upscope $end
$scope module std_logic_1164 $end
$upscope $end
$scope module numeric_std $end
$upscope $end
$scope module math_real $end
$upscope $end
$scope module tb_fft16_appx $end
$var reg 1 ! rstn $end
$var reg 1 " ena $end
$var reg 5 # xr[4:0] $end
$var reg 5 $ xi[4:0] $end
$var reg 16 % qr[15:0] $end
$var reg 16 & qi[15:0] $end
$var reg 1 ' clk $end
$scope module dut $end
$var reg 1 ( clk $end
$var reg 1 ) rstn $end
$var reg 1 * ena $end
$var reg 5 + xr[4:0] $end
$var reg 5 , xi[4:0] $end
$var reg 16 - qr[15:0] $end
$var reg 16 . qi[15:0] $end
$var reg 2 / do_rot[1:0] $end
$var reg 4 0 do_feed[3:0] $end
$var reg 6 1 dr_bf4[5:0] $end
$var reg 6 2 di_bf4[5:0] $end
$var reg 7 3 dr_bf3[6:0] $end
$var reg 7 4 di_bf3[6:0] $end
$var reg 7 5 wr_16[6:0] $end
$var reg 7 6 wi_16[6:0] $end
$var reg 14 7 dr_mlt[13:0] $end
$var reg 14 8 di_mlt[13:0] $end
$var reg 15 9 dr_bf2[14:0] $end
$var reg 15 : di_bf2[14:0] $end
$var reg 16 ; dr_bf1[15:0] $end
$var reg 16 < di_bf1[15:0] $end
$var reg 4 = addr[3:0] $end
$var reg 4 > cnt[3:0] $end
$scope module bf4 $end
$var reg 1 ? clk $end
$var reg 1 @ rstn $end
$var reg 1 A do_feed $end
$var reg 1 B ena $end
$var reg 5 C ar[4:0] $end
$var reg 5 D ai[4:0] $end
$var reg 6 E qr[5:0] $end
$var reg 6 F qi[5:0] $end
$var reg 6 G mi_r[5:0] $end
$var reg 6 H mi_i[5:0] $end
$var reg 6 I mo_r[5:0] $end
$var reg 6 J mo_i[5:0] $end
$comment mem_r is not handled $end
$comment mem_i is not handled $end
$var reg 6 K sum_r[5:0] $end
$var reg 6 L sum_i[5:0] $end
$var reg 6 M dif_r[5:0] $end
$var reg 6 N dif_i[5:0] $end
$upscope $end
$scope module bf3 $end
$var reg 1 O clk $end
$var reg 1 P rstn $end
$var reg 1 Q do_feed $end
$var reg 1 R do_rot $end
$var reg 1 S ena $end
$var reg 6 T ar[5:0] $end
$var reg 6 U ai[5:0] $end
$var reg 7 V qr[6:0] $end
$var reg 7 W qi[6:0] $end
$var reg 7 X mi_r[6:0] $end
$var reg 7 Y mi_i[6:0] $end
$var reg 7 Z mo_r[6:0] $end
$var reg 7 [ mo_i[6:0] $end
$var reg 6 \ rot_r[5:0] $end
$var reg 6 ] rot_i[5:0] $end
$var reg 6 ^ rot_is[5:0] $end
$comment mem_r is not handled $end
$comment mem_i is not handled $end
$var reg 7 _ sum_r[6:0] $end
$var reg 7 ` sum_i[6:0] $end
$var reg 7 a dif_r[6:0] $end
$var reg 7 b dif_i[6:0] $end
$upscope $end
$scope module cmult_16 $end
$var reg 7 c ar[6:0] $end
$var reg 7 d ai[6:0] $end
$var reg 7 e br[6:0] $end
$var reg 7 f bi[6:0] $end
$var reg 14 g qr[13:0] $end
$var reg 14 h qi[13:0] $end
$var reg 14 i ar_br[13:0] $end
$var reg 14 j ar_bi[13:0] $end
$var reg 14 k ai_br[13:0] $end
$var reg 14 l ai_bi[13:0] $end
$var reg 15 m qr_e[14:0] $end
$var reg 15 n qi_e[14:0] $end
$var reg 14 o cr_dr[13:0] $end
$var reg 14 p cr_di[13:0] $end
$var reg 14 q ci_dr[13:0] $end
$var reg 14 r ci_di[13:0] $end
$scope module dut1 $end
$var reg 7 s da[6:0] $end
$var reg 7 t db[6:0] $end
$var reg 14 u dout[13:0] $end
$comment pp is not handled $end
$upscope $end
$scope module dut2 $end
$var reg 7 v da[6:0] $end
$var reg 7 w db[6:0] $end
$var reg 14 x dout[13:0] $end
$comment pp is not handled $end
$upscope $end
$scope module dut3 $end
$var reg 7 y da[6:0] $end
$var reg 7 z db[6:0] $end
$var reg 14 { dout[13:0] $end
$comment pp is not handled $end
$upscope $end
$scope module dut4 $end
$var reg 7 | da[6:0] $end
$var reg 7 } db[6:0] $end
$var reg 14 !" dout[13:0] $end
$comment pp is not handled $end
$upscope $end
$upscope $end
$scope module rom16_1 $end
$var reg 1 "" clk $end
$var reg 1 #" rstn $end
$var reg 1 $" ena $end
$var reg 4 %" addr[3:0] $end
$var reg 7 &" wr_16[6:0] $end
$var reg 7 '" wi_16[6:0] $end
$upscope $end
$scope module bf2 $end
$var reg 1 (" clk $end
$var reg 1 )" rstn $end
$var reg 1 *" do_feed $end
$var reg 1 +" ena $end
$var reg 14 ," ar[13:0] $end
$var reg 14 -" ai[13:0] $end
$var reg 15 ." qr[14:0] $end
$var reg 15 /" qi[14:0] $end
$var reg 15 0" mi_r[14:0] $end
$var reg 15 1" mi_i[14:0] $end
$var reg 15 2" mo_r[14:0] $end
$var reg 15 3" mo_i[14:0] $end
$comment mem_r is not handled $end
$comment mem_i is not handled $end
$var reg 15 4" sum_r[14:0] $end
$var reg 15 5" sum_i[14:0] $end
$var reg 15 6" dif_r[14:0] $end
$var reg 15 7" dif_i[14:0] $end
$upscope $end
$scope module bf1 $end
$var reg 1 8" clk $end
$var reg 1 9" rstn $end
$var reg 1 :" do_feed $end
$var reg 1 ;" do_rot $end
$var reg 1 <" ena $end
$var reg 15 =" ar[14:0] $end
$var reg 15 >" ai[14:0] $end
$var reg 16 ?" qr[15:0] $end
$var reg 16 @" qi[15:0] $end
$var reg 16 A" mi_r[15:0] $end
$var reg 16 B" mi_i[15:0] $end
$var reg 16 C" mo_r[15:0] $end
$var reg 16 D" mo_i[15:0] $end
$var reg 15 E" rot_r[14:0] $end
$var reg 15 F" rot_i[14:0] $end
$var reg 15 G" rot_is[14:0] $end
$comment mem_r is not handled $end
$comment mem_i is not handled $end
$var reg 16 H" sum_r[15:0] $end
$var reg 16 I" sum_i[15:0] $end
$var reg 16 J" dif_r[15:0] $end
$var reg 16 K" dif_i[15:0] $end
$upscope $end
$upscope $end
$upscope $end
$enddefinitions $end
#0
0!
U"
bUUUUU #
bUUUUU $
b0000000000000000 %
b0000000000000000 &
1'
1(
0)
U*
bUUUUU +
bUUUUU ,
b0000000000000000 -
b0000000000000000 .
b00 /
b0000 0
b000000 1
b000000 2
b0000000 3
b0000000 4
b0111111 5
b0000000 6
b00000000000000 7
b00000000000000 8
b000000000000000 9
b000000000000000 :
b0000000000000000 ;
b0000000000000000 <
b0100 =
b0000 >
1?
0@
0A
UB
bUUUUU C
bUUUUU D
b000000 E
b000000 F
bUUUUUU G
bUUUUUU H
b000000 I
b000000 J
bXXXXXX K
bXXXXXX L
bXXXXXX M
bXXXXXX N
1O
0P
0Q
0R
US
b000000 T
b000000 U
b0000000 V
b0000000 W
b0000000 X
b0000000 Y
b0000000 Z
b0000000 [
b000000 \
b000000 ]
bUUUUUU ^
b0000000 _
b0000000 `
b0000000 a
b0000000 b
b0000000 c
b0000000 d
b0111111 e
b0000000 f
b00000000000000 g
b00000000000000 h
b00000000000000 i
b00000000000000 j
b00000000000000 k
b00000000000000 l
b000000000000001 m
b000000000000001 n
b00000000000000 o
b00000000000000 p
b00000000000000 q
b00000000000000 r
b0000000 s
b0111111 t
b00000000000000 u
b0000000 v
b0000000 w
b00000000000000 x
b0000000 y
b0111111 z
b00000000000000 {
b0000000 |
b0000000 }
b00000000000000 !"
1""
0#"
U$"
b0100 %"
b0111111 &"
b0000000 '"
1("
0)"
0*"
U+"
b00000000000000 ,"
b00000000000000 -"
b000000000000000 ."
b000000000000000 /"
b000000000000000 0"
b000000000000000 1"
b000000000000000 2"
b000000000000000 3"
b000000000000000 4"
b000000000000000 5"
b000000000000000 6"
b000000000000000 7"
18"
09"
0:"
0;"
U<"
b000000000000000 ="
b000000000000000 >"
b0000000000000000 ?"
b0000000000000000 @"
b0000000000000000 A"
b0000000000000000 B"
b0000000000000000 C"
b0000000000000000 D"
b000000000000000 E"
b000000000000000 F"
bUUUUUUUUUUUUUUU G"
b0000000000000000 H"
b0000000000000000 I"
b0000000000000000 J"
b0000000000000000 K"
#2000000
0'
0(
0?
0O
0""
0("
08"
#4000000
1'
1(
1?
1O
1""
1("
18"
#5000000
1!
1"
b00000 #
b00000 $
1)
1*
b00000 +
b00000 ,
1@
1B
b00000 C
b00000 D
b000000 G
b000000 H
b000000 K
b000000 L
b000000 M
b000000 N
1P
1S
1#"
1$"
1)"
1+"
19"
1<"
#6000000
0'
0(
0?
0O
0""
0("
08"
#8000000
1'
1(
b01 /
b0001 0
b0101101 5
b1010011 6
b0101 =
b0001 >
1?
1O
b0101101 e
b1010011 f
b0101101 t
b1010011 w
b0101101 z
b1010011 }
1""
b0101 %"
b0101101 &"
b1010011 '"
1("
18"
1:"
1;"
#10000000
0'
0(
0?
0O
0""
0("
08"
#12000000
1'
1(
b00 /
b0010 0
b0000000 5
b1000001 6
b0110 =
b0010 >
1?
1O
b0000000 e
b1000001 f
b0000000 t
b1000001 w
b0000000 z
b1000001 }
1""
b0110 %"
b0000000 &"
b1000001 '"
1("
1*"
18"
0:"
0;"
#14000000
0'
0(
0?
0O
0""
0("
08"
#16000000
b01000 #
1'
1(
b01000 +
b0011 0
b1010011 5
b1010011 6
b0111 =
b0011 >
1?
b01000 C
b001000 G
b001000 K
b111000 M
1O
b1010011 e
b1010011 f
b1010011 t
b1010011 w
b1010011 z
b1010011 }
1""
b0111 %"
b1010011 &"
b1010011 '"
1("
18"
1:"
#18000000
0'
0(
0?
0O
0""
0("
08"
#20000000
b00000 #
1'
1(
b00000 +
b10 /
b0100 0
b0111111 5
b0000000 6
b1000 =
b0100 >
1?
b00000 C
b000000 G
b000000 K
b000000 M
1O
1Q
1R
b0111111 e
b0000000 f
b0111111 t
b0000000 w
b0111111 z
b0000000 }
1""
b1000 %"
b0111111 &"
b0000000 '"
1("
0*"
18"
0:"
#22000000
0'
0(
0?
0O
0""
0("
08"
#24000000
1'
1(
b11 /
b0101 0
b0111010 5
b1101000 6
b1001 =
b0101 >
1?
1O
b0111010 e
b1101000 f
b0111010 t
b1101000 w
b0111010 z
b1101000 }
1""
b1001 %"
b0111010 &"
b1101000 '"
1("
18"
1:"
1;"
#26000000
0'
0(
0?
0O
0""
0("
08"
#28000000
1'
1(
b10 /
b0110 0
b0101101 5
b1010011 6
b1010 =
b0110 >
1?
1O
b0101101 e
b1010011 f
b0101101 t
b1010011 w
b0101101 z
b1010011 }
1""
b1010 %"
b0101101 &"
b1010011 '"
1("
1*"
18"
0:"
0;"
#30000000
0'
0(
0?
0O
0""
0("
08"
#32000000
1'
1(
b0111 0
b0011000 5
b1000110 6
b1011 =
b0111 >
1?
1O
b0011000 e
b1000110 f
b0011000 t
b1000110 w
b0011000 z
b1000110 }
1""
b1011 %"
b0011000 &"
b1000110 '"
1("
18"
1:"
#34000000
0'
0(
0?
0O
0""
0("
08"
#36000000
1'
1(
b00 /
b1000 0
b0111111 5
b0000000 6
b1100 =
b1000 >
1?
1A
1O
0Q
0R
b0111111 e
b0000000 f
b0111111 t
b0000000 w
b0111111 z
b0000000 }
1""
b1100 %"
b0111111 &"
b0000000 '"
1("
0*"
18"
0:"
#38000000
0'
0(
0?
0O
0""
0("
08"
#40000000
1'
1(
b01 /
b1001 0
b0011000 5
b1000110 6
b1101 =
b1001 >
1?
1O
b0011000 e
b1000110 f
b0011000 t
b1000110 w
b0011000 z
b1000110 }
1""
b1101 %"
b0011000 &"
b1000110 '"
1("
18"
1:"
1;"
#42000000
0'
0(
0?
0O
0""
0("
08"
#44000000
1'
1(
b00 /
b1010 0
b1010011 5
b1010011 6
b1110 =
b1010 >
1?
1O
b1010011 e
b1010011 f
b1010011 t
b1010011 w
b1010011 z
b1010011 }
1""
b1110 %"
b1010011 &"
b1010011 '"
1("
1*"
18"
0:"
0;"
#46000000
0'
0(
0?
0O
0""
0("
08"
#48000000
1'
1(
b1011 0
b001000 1
b1000110 5
b0011000 6
b1111 =
b1011 >
1?
b001000 E
b001000 G
b001000 I
b001000 K
b001000 M
1O
b001000 T
b0001000 X
b001000 \
b0001000 _
b1111000 a
b1000110 e
b0011000 f
b1000110 t
b0011000 w
b1000110 z
b0011000 }
1""
b1111 %"
b1000110 &"
b0011000 '"
1("
18"
1:"
#50000000
0'
0(
0?
0O
0""
0("
08"
#52000000
1'
1(
b1100 0
b000000 1
b0000000 3
b0111111 5
b0000000 6
b00000000000000 7
b0000 =
b1100 >
1?
b000000 E
b000000 G
b000000 I
b000000 K
b000000 M
1O
1Q
b000000 T
b0000000 V
b0000000 X
b000000 \
b0000000 _
b0000000 a
b0000000 c
b0111111 e
b0000000 f
b00000000000000 g
b00000000000000 i
b000000000000001 m
b00000000000000 o
b0000000 s
b0111111 t
b00000000000000 u
b0000000 v
b0000000 w
b0111111 z
b0000000 }
1""
b0000 %"
b0111111 &"
b0000000 '"
1("
0*"
b00000000000000 ,"
b000000000000000 0"
b000000000000000 4"
b000000000000000 6"
18"
0:"
#54000000
0'
0(
0?
0O
0""
0("
08"
#56000000
1'
1(
b01 /
b1101 0
b0001 =
b1101 >
1?
1O
1""
b0001 %"
1("
18"
1:"
1;"
#58000000
0'
0(
0?
0O
0""
0("
08"
#60000000
1'
1(
b00 /
b1110 0
b0010 =
b1110 >
1?
1O
1""
b0010 %"
1("
1*"
18"
0:"
0;"
#62000000
0'
0(
0?
0O
0""
0("
08"
#64000000
b0000000010000000 %
1'
1(
b0000000010000000 -
b1111 0
b0001000 3
b00000010000000 7
b000000010000000 9
b0000000010000000 ;
b0011 =
b1111 >
1?
1O
b0001000 V
b0001000 X
b0001000 Z
b0001000 _
b0001000 a
b0001000 c
b00000010000000 g
b00000100000000 i
b000000100000001 m
b00000100000000 o
b0001000 s
b00000100000000 u
b0001000 v
1""
b0011 %"
1("
b00000010000000 ,"
b000000010000000 ."
b111111110000000 0"
b000000010000000 4"
b111111110000000 6"
18"
1:"
b000000010000000 ="
b0000000010000000 ?"
b1111111110000000 A"
b000000010000000 E"
b0000000010000000 H"
b1111111110000000 J"
#66000000
0'
0(
0?
0O
0""
0("
08"
#68000000
b1111111110000000 %
1'
1(
b1111111110000000 -
b0000 0
b0000000 3
b00000000000000 7
b000000000000000 9
b1111111110000000 ;
b0100 =
b0000 >
1?
0A
1O
0Q
b0000000 V
b0000000 X
b0000000 Z
b0000000 _
b0000000 a
b0000000 c
b00000000000000 g
b00000000000000 i
b000000000000001 m
b00000000000000 o
b0000000 s
b00000000000000 u
b0000000 v
1""
b0100 %"
1("
0*"
b00000000000000 ,"
b000000000000000 ."
b000000000000000 0"
b000000000000000 4"
b000000000000000 6"
18"
0:"
b000000000000000 ="
b1111111110000000 ?"
b0000000000000000 A"
b1111111110000000 C"
b000000000000000 E"
b1111111110000000 H"
b1111111110000000 J"
#70000000
0'
0(
0?
0O
0""
0("
08"
#72000000
b0000000000000000 %
b0000000010000000 &
1'
1(
b0000000000000000 -
b0000000010000000 .
b01 /
b0001 0
b0101101 5
b1010011 6
b111111110000000 9
b0000000000000000 ;
b0000000010000000 <
b0101 =
b0001 >
1?
1O
b0101101 e
b1010011 f
b0101101 t
b1010011 w
b0101101 z
b1010011 }
1""
b0101 %"
b0101101 &"
b1010011 '"
1("
b111111110000000 ."
b111111110000000 2"
b111111110000000 4"
b111111110000000 6"
18"
1:"
1;"
b111111110000000 ="
b0000000000000000 ?"
b0000000010000000 @"
b0000000000000000 A"
b1111111110000000 B"
b0000000000000000 C"
b000000010000000 F"
b0000000000000000 H"
b0000000010000000 I"
b0000000000000000 J"
b1111111110000000 K"
#74000000
0'
0(
0?
0O
0""
0("
08"
#76000000
b1111111110000000 &
1'
1(
b1111111110000000 .
b00 /
b0010 0
b0000000 5
b1000001 6
b000000000000000 9
b1111111110000000 <
b0110 =
b0010 >
1?
1O
b0000000 e
b1000001 f
b0000000 t
b1000001 w
b0000000 z
b1000001 }
1""
b0110 %"
b0000000 &"
b1000001 '"
1("
1*"
b000000000000000 ."
b000000000000000 0"
b000000000000000 2"
b000000000000000 4"
b000000000000000 6"
18"
0:"
0;"
b000000000000000 ="
b1111111110000000 @"
b0000000000000000 A"
b0000000000000000 B"
b1111111110000000 D"
b000000000000000 E"
b000000000000000 F"
b0000000000000000 H"
b1111111110000000 I"
b0000000000000000 J"
b1111111110000000 K"
#78000000
0'
0(
0?
0O
0""
0("
08"
#80000000
b1111111100000000 %
b1111111100000000 &
1'
1(
b1111111100000000 -
b1111111100000000 .
b0011 0
b001000 1
b0001000 3
b1010011 5
b1010011 6
b11111100000000 7
b11111100000000 8
b111111100000000 9
b111111100000000 :
b1111111100000000 ;
b1111111100000000 <
b0111 =
b0011 >
1?
b001000 E
b001000 I
b001000 K
b001000 M
1O
b001000 T
b0001000 V
b0001000 X
b0001000 Z
b001000 \
b0010000 _
b0000000 a
b0001000 c
b1010011 e
b1010011 f
b11111100000000 g
b11111100000000 h
b11111000000000 i
b11111000000000 j
b111111000000001 m
b111111000000001 n
b11111000000000 o
b11111000000000 p
b0001000 s
b1010011 t
b11111000000000 u
b0001000 v
b1010011 w
b11111000000000 x
b1010011 z
b1010011 }
1""
b0111 %"
b1010011 &"
b1010011 '"
1("
b11111100000000 ,"
b11111100000000 -"
b111111100000000 ."
b111111100000000 /"
b000000100000000 0"
b000000100000000 1"
b111111100000000 4"
b111111100000000 5"
b000000100000000 6"
b000000100000000 7"
18"
1:"
b111111100000000 ="
b111111100000000 >"
b1111111100000000 ?"
b1111111100000000 @"
b0000000100000000 A"
b0000000100000000 B"
b0000000000000000 D"
b111111100000000 E"
b111111100000000 F"
b1111111100000000 H"
b1111111100000000 I"
b0000000100000000 J"
b0000000100000000 K"
#82000000
0'
0(
0?
0O
0""
0("
08"
#84000000
b0000000100000000 %
b0000000100000000 &
1'
1(
b0000000100000000 -
b0000000100000000 .
b10 /
b0100 0
b000000 1
b0000000 3
b0111111 5
b0000000 6
b00000000000000 7
b00000000000000 8
b000000000000000 9
b000000000000000 :
b0000000100000000 ;
b0000000100000000 <
b1000 =
b0100 >
1?
b000000 E
b000000 I
b000000 K
b000000 M
1O
1Q
1R
b000000 T
b0000000 V
b0000000 X
b0000000 Z
b000000 \
b0000000 _
b0000000 a
b0000000 c
b0111111 e
b0000000 f
b00000000000000 g
b00000000000000 h
b00000000000000 i
b00000000000000 j
b000000000000001 m
b000000000000001 n
b00000000000000 o
b00000000000000 p
b0000000 s
b0111111 t
b00000000000000 u
b0000000 v
b0000000 w
b00000000000000 x
b0111111 z
b0000000 }
1""
b1000 %"
b0111111 &"
b0000000 '"
1("
0*"
b00000000000000 ,"
b00000000000000 -"
b000000000000000 ."
b000000000000000 /"
b000000000000000 0"
b000000000000000 1"
b000000000000000 4"
b000000000000000 5"
b000000000000000 6"
b000000000000000 7"
18"
0:"
b000000000000000 ="
b000000000000000 >"
b0000000100000000 ?"
b0000000100000000 @"
b0000000000000000 A"
b0000000000000000 B"
b0000000100000000 C"
b0000000100000000 D"
b000000000000000 E"
b000000000000000 F"
b0000000100000000 H"
b0000000100000000 I"
b0000000100000000 J"
b0000000100000000 K"
#86000000
0'
0(
0?
0O
0""
0("
08"
#88000000
b0000000100000000 %
b1111111100000000 &
1'
1(
b0000000100000000 -
b1111111100000000 .
b11 /
b0101 0
b0111010 5
b1101000 6
b000000100000000 9
b000000100000000 :
b0000000100000000 ;
b1111111100000000 <
b1001 =
b0101 >
1?
1O
b0111010 e
b1101000 f
b0111010 t
b1101000 w
b0111010 z
b1101000 }
1""
b1001 %"
b0111010 &"
b1101000 '"
1("
b000000100000000 ."
b000000100000000 /"
b000000100000000 2"
b000000100000000 3"
b000000100000000 4"
b000000100000000 5"
b000000100000000 6"
b000000100000000 7"
18"
1:"
1;"
b000000100000000 ="
b000000100000000 >"
b0000000100000000 ?"
b1111111100000000 @"
b1111111100000000 A"
b0000000100000000 B"
b0000000000000000 C"
b0000000000000000 D"
b000000100000000 E"
b111111100000000 F"
b0000000100000000 H"
b1111111100000000 I"
b1111111100000000 J"
b0000000100000000 K"
#90000000
0'
0(
0?
0O
0""
0("
08"
#92000000
b1111111100000000 %
b0000000100000000 &
1'
1(
b1111111100000000 -
b0000000100000000 .
b10 /
b0110 0
b0101101 5
b1010011 6
b000000000000000 9
b000000000000000 :
b1111111100000000 ;
b0000000100000000 <
b1010 =
b0110 >
1?
1O
b0101101 e
b1010011 f
b0101101 t
b1010011 w
b0101101 z
b1010011 }
1""
b1010 %"
b0101101 &"
b1010011 '"
1("
1*"
b000000000000000 ."
b000000000000000 /"
b000000000000000 0"
b000000000000000 1"
b000000000000000 2"
b000000000000000 3"
b000000000000000 4"
b000000000000000 5"
b000000000000000 6"
b000000000000000 7"
18"
0:"
0;"
b000000000000000 ="
b000000000000000 >"
b1111111100000000 ?"
b0000000100000000 @"
b0000000000000000 A"
b0000000000000000 B"
b1111111100000000 C"
b0000000100000000 D"
b000000000000000 E"
b000000000000000 F"
b1111111100000000 H"
b0000000100000000 I"
b1111111100000000 J"
b0000000100000000 K"
#94000000
0'
0(
0?
0O
0""
0("
08"
#96000000
b0000000000000000 %
b1111111100000000 &
1'
1(
b0000000000000000 -
b1111111100000000 .
b0111 0
b0001000 3
b0011000 5
b1000110 6
b11111100000000 8
b111111100000000 :
b0000000000000000 ;
b1111111100000000 <
b1011 =
b0111 >
1?
1O
b0001000 V
b0001000 X
b0001000 Z
b0001000 _
b0001000 a
b0001000 c
b0011000 e
b1000110 f
b11111100000000 h
b11111000000000 j
b111111000000001 n
b11111000000000 p
b0001000 s
b0011000 t
b0001000 v
b1000110 w
b11111000000000 x
b0011000 z
b1000110 }
1""
b1011 %"
b0011000 &"
b1000110 '"
1("
b11111100000000 -"
b111111100000000 /"
b000000100000000 1"
b111111100000000 5"
b000000100000000 7"
18"
1:"
b111111100000000 >"
b0000000000000000 ?"
b1111111100000000 @"
b0000000000000000 A"
b0000000100000000 B"
b0000000000000000 C"
b0000000000000000 D"
b111111100000000 F"
b0000000000000000 H"
b1111111100000000 I"
b0000000000000000 J"
b0000000100000000 K"
#98000000
0'
0(
0?
0O
0""
0("
08"
#100000000
b0000000100000000 &
1'
1(
b0000000100000000 .
b00 /
b1000 0
b0000000 3
b0111111 5
b0000000 6
b00000000000000 7
b00000000000000 8
b000000000000000 :
b0000000100000000 <
b1100 =
b1000 >
1?
1A
1O
0Q
0R
b0000000 V
b0000000 X
b0000000 Z
b0000000 _
b0000000 a
b0000000 c
b0111111 e
b0000000 f
b00000000000000 g
b00000000000000 h
b00000000000000 i
b00000000000000 j
b000000000000001 m
b000000000000001 n
b00000000000000 o
b00000000000000 p
b0000000 s
b0111111 t
b00000000000000 u
b0000000 v
b0000000 w
b00000000000000 x
b0111111 z
b0000000 }
1""
b1100 %"
b0111111 &"
b0000000 '"
1("
0*"
b00000000000000 ,"
b00000000000000 -"
b000000000000000 /"
b000000000000000 0"
b000000000000000 1"
b000000000000000 4"
b000000000000000 5"
b000000000000000 6"
b000000000000000 7"
18"
0:"
b000000000000000 >"
b0000000100000000 @"
b0000000000000000 B"
b0000000100000000 D"
b000000000000000 F"
b0000000100000000 I"
b0000000100000000 K"
#102000000
0'
0(
0?
0O
0""
0("
08"
#104000000
b0000000100000000 %
b0000000000000000 &
1'
1(
b0000000100000000 -
b0000000000000000 .
b01 /
b1001 0
b0011000 5
b1000110 6
b000000100000000 :
b0000000100000000 ;
b0000000000000000 <
b1101 =
b1001 >
1?
1O
b0011000 e
b1000110 f
b0011000 t
b1000110 w
b0011000 z
b1000110 }
1""
b1101 %"
b0011000 &"
b1000110 '"
1("
b000000100000000 /"
b000000100000000 3"
b000000100000000 5"
b000000100000000 7"
18"
1:"
1;"
b000000100000000 >"
b0000000100000000 ?"
b0000000000000000 @"
b1111111100000000 A"
b0000000000000000 B"
b0000000000000000 D"
b000000100000000 E"
b0000000100000000 H"
b0000000000000000 I"
b1111111100000000 J"
b0000000000000000 K"
#106000000
0'
0(
0?
0O
0""
0("
08"
#108000000
b1111111100000000 %
1'
1(
b1111111100000000 -
b00 /
b1010 0
b1010011 5
b1010011 6
b000000000000000 :
b1111111100000000 ;
b1110 =
b1010 >
1?
1O
b1010011 e
b1010011 f
b1010011 t
b1010011 w
b1010011 z
b1010011 }
1""
b1110 %"
b1010011 &"
b1010011 '"
1("
1*"
b000000000000000 /"
b000000000000000 1"
b000000000000000 3"
b000000000000000 5"
b000000000000000 7"
18"
0:"
0;"
b000000000000000 >"
b1111111100000000 ?"
b0000000000000000 A"
b0000000000000000 B"
b1111111100000000 C"
b000000000000000 E"
b000000000000000 F"
b1111111100000000 H"
b0000000000000000 I"
b1111111100000000 J"
b0000000000000000 K"
#110000000
0'
0(
0?
0O
0""
0("
08"
#112000000
b1111111100000000 %
1'
1(
b1111111100000000 -
b1011 0
b0001000 3
b1000110 5
b0011000 6
b11111100000000 7
b111111100000000 9
b1111111100000000 ;
b1111 =
b1011 >
1?
1O
b0001000 V
b0001000 Z
b0001000 _
b0001000 a
b0001000 c
b1000110 e
b0011000 f
b11111100000000 g
b11111000000000 i
b111111000000001 m
b11111000000000 o
b0001000 s
b1000110 t
b11111000000000 u
b0001000 v
b0011000 w
b1000110 z
b0011000 }
1""
b1111 %"
b1000110 &"
b0011000 '"
1("
b11111100000000 ,"
b111111100000000 ."
b000000100000000 0"
b111111100000000 4"
b000000100000000 6"
18"
1:"
b111111100000000 ="
b1111111100000000 ?"
b0000000100000000 A"
b0000000000000000 C"
b111111100000000 E"
b1111111100000000 H"
b0000000100000000 J"
#114000000
0'
0(
0?
0O
0""
0("
08"
#116000000
b0000000100000000 %
1'
1(
b0000000100000000 -
b1100 0
b0000000 3
b0111111 5
b0000000 6
b00000000000000 7
b000000000000000 9
b0000000100000000 ;
b0000 =
b1100 >
1?
1O
1Q
b0000000 V
b0000000 X
b0000000 Z
b0000000 _
b0000000 a
b0000000 c
b0111111 e
b0000000 f
b00000000000000 g
b00000000000000 i
b000000000000001 m
b00000000000000 o
b0000000 s
b0111111 t
b00000000000000 u
b0000000 v
b0000000 w
b0111111 z
b0000000 }
1""
b0000 %"
b0111111 &"
b0000000 '"
1("
0*"
b00000000000000 ,"
b000000000000000 ."
b000000000000000 0"
b000000000000000 4"
b000000000000000 6"
18"
0:"
b000000000000000 ="
b0000000100000000 ?"
b0000000000000000 A"
b0000000100000000 C"
b000000000000000 E"
b0000000100000000 H"
b0000000100000000 J"
#118000000
0'
0(
0?
0O
0""
0("
08"
#120000000
b0000000000000000 %
b1111111100000000 &
1'
1(
b0000000000000000 -
b1111111100000000 .
b01 /
b1101 0
b000000100000000 9
b0000000000000000 ;
b1111111100000000 <
b0001 =
b1101 >
1?
1O
1""
b0001 %"
1("
b000000100000000 ."
b000000100000000 2"
b000000100000000 4"
b000000100000000 6"
18"
1:"
1;"
b000000100000000 ="
b0000000000000000 ?"
b1111111100000000 @"
b0000000000000000 A"
b0000000100000000 B"
b0000000000000000 C"
b111111100000000 F"
b0000000000000000 H"
b1111111100000000 I"
b0000000000000000 J"
b0000000100000000 K"
#122000000
0'
0(
0?
0O
0""
0("
08"
#124000000
b0000000100000000 &
1'
1(
b0000000100000000 .
b00 /
b1110 0
b000000000000000 9
b0000000100000000 <
b0010 =
b1110 >
1?
1O
1""
b0010 %"
1("
1*"
b000000000000000 ."
b000000000000000 0"
b000000000000000 2"
b000000000000000 4"
b000000000000000 6"
18"
0:"
0;"
b000000000000000 ="
b0000000100000000 @"
b0000000000000000 A"
b0000000000000000 B"
b0000000100000000 D"
b000000000000000 E"
b000000000000000 F"
b0000000000000000 H"
b0000000100000000 I"
b0000000000000000 J"
b0000000100000000 K"
#126000000
0'
0(
0?
0O
0""
0("
08"
#128000000
b0000000000000000 &
1'
1(
b0000000000000000 .
b1111 0
b0000000000000000 <
b0011 =
b1111 >
1?
1O
1""
b0011 %"
1("
18"
1:"
b0000000000000000 @"
b0000000000000000 B"
b0000000000000000 D"
b0000000000000000 I"
b0000000000000000 K"
