tests/testfiles/apprx_add_experiments/tb_fft16_ofdm_apx_4.vcd
$date
  Mon Dec 18 12:30:50 2023
$end
$version
  GHDL v0
$end
$timescale
  1 ps
$end
$scope module standard $end
$upscope $end
$scope module std_logic_1164 $end
$upscope $end
$scope module numeric_std $end
$upscope $end
$scope module textio $end
$upscope $end
$scope module std_logic_textio $end
$upscope $end
$scope module math_real $end
$upscope $end
$scope module tb_fft16_ofdm_apx $end
$var reg 1 ! rstn $end
$var reg 1 " ena $end
$var reg 1 # q_valid $end
$var reg 5 $ xr[4:0] $end
$var reg 5 % xi[4:0] $end
$var reg 16 & qr[15:0] $end
$var reg 16 ' qi[15:0] $end
$var reg 1 ( co_add1_1 $end
$var reg 1 ) co_add1_2 $end
$var reg 1 * co_add2_1 $end
$var reg 1 + co_add2_2 $end
$var reg 1 , co_sub1_1 $end
$var reg 1 - co_sub1_2 $end
$var reg 1 . co_sub2_1 $end
$var reg 1 / co_sub2_2 $end
$var reg 1 0 ci_add1_1 $end
$var reg 1 1 ci_add1_2 $end
$var reg 1 2 ci_add2_1 $end
$var reg 1 3 ci_add2_2 $end
$var reg 1 4 ci_sub1_1 $end
$var reg 1 5 ci_sub1_2 $end
$var reg 1 6 ci_sub2_1 $end
$var reg 1 7 ci_sub2_2 $end
$var reg 1 8 clk $end
$scope module dut $end
$var reg 1 9 clk $end
$var reg 1 : rstn $end
$var reg 1 ; ci_add1_1 $end
$var reg 1 < ci_add2_1 $end
$var reg 1 = ci_sub1_1 $end
$var reg 1 > ci_sub2_1 $end
$var reg 1 ? ci_add1_2 $end
$var reg 1 @ ci_add2_2 $end
$var reg 1 A ci_sub1_2 $end
$var reg 1 B ci_sub2_2 $end
$var reg 1 C ena $end
$var reg 5 D xr[4:0] $end
$var reg 5 E xi[4:0] $end
$var reg 1 F co_add1_1 $end
$var reg 1 G co_add2_1 $end
$var reg 1 H co_sub1_1 $end
$var reg 1 I co_sub2_1 $end
$var reg 1 J co_add1_2 $end
$var reg 1 K co_add2_2 $end
$var reg 1 L co_sub1_2 $end
$var reg 1 M co_sub2_2 $end
$var reg 16 N qr[15:0] $end
$var reg 16 O qi[15:0] $end
$var reg 2 P do_rot[1:0] $end
$var reg 4 Q do_feed[3:0] $end
$var reg 6 R dr_bf4[5:0] $end
$var reg 6 S di_bf4[5:0] $end
$var reg 7 T dr_bf3[6:0] $end
$var reg 7 U di_bf3[6:0] $end
$var reg 7 V wr_16[6:0] $end
$var reg 7 W wi_16[6:0] $end
$var reg 14 X dr_mlt[13:0] $end
$var reg 14 Y di_mlt[13:0] $end
$var reg 15 Z dr_bf2[14:0] $end
$var reg 15 [ di_bf2[14:0] $end
$var reg 16 \ dr_bf1[15:0] $end
$var reg 16 ] di_bf1[15:0] $end
$var reg 4 ^ addr[3:0] $end
$var reg 4 _ cnt[3:0] $end
$scope module bf4 $end
$var reg 1 ` clk $end
$var reg 1 a rstn $end
$var reg 1 b do_feed $end
$var reg 1 c ena $end
$var reg 5 d ar[4:0] $end
$var reg 5 e ai[4:0] $end
$var reg 6 f qr[5:0] $end
$var reg 6 g qi[5:0] $end
$var reg 6 h mi_r[5:0] $end
$var reg 6 i mi_i[5:0] $end
$var reg 6 j mo_r[5:0] $end
$var reg 6 k mo_i[5:0] $end
$comment mem_r is not handled $end
$comment mem_i is not handled $end
$var reg 6 l sum_r[5:0] $end
$var reg 6 m sum_i[5:0] $end
$var reg 6 n dif_r[5:0] $end
$var reg 6 o dif_i[5:0] $end
$upscope $end
$scope module bf3 $end
$var reg 1 p ci_add1 $end
$var reg 1 q ci_add2 $end
$var reg 1 r ci_sub1 $end
$var reg 1 s ci_sub2 $end
$var reg 1 t clk $end
$var reg 1 u rstn $end
$var reg 1 v do_feed $end
$var reg 1 w do_rot $end
$var reg 1 x ena $end
$var reg 6 y ar[5:0] $end
$var reg 6 z ai[5:0] $end
$var reg 7 { qr[6:0] $end
$var reg 7 | qi[6:0] $end
$var reg 1 } co_add1 $end
$var reg 1 !" co_add2 $end
$var reg 1 "" co_sub1 $end
$var reg 1 #" co_sub2 $end
$var reg 7 $" mi_r[6:0] $end
$var reg 7 %" mi_i[6:0] $end
$var reg 7 &" mo_r[6:0] $end
$var reg 7 '" mo_i[6:0] $end
$var reg 6 (" rot_r[5:0] $end
$var reg 6 )" rot_i[5:0] $end
$var reg 6 *" rot_is[5:0] $end
$var reg 7 +" sum_i_aux[6:0] $end
$var reg 7 ," sum_r_aux[6:0] $end
$var reg 7 -" diff_i_aux[6:0] $end
$var reg 7 ." diff_r_aux[6:0] $end
$comment mem_r is not handled $end
$comment mem_i is not handled $end
$var reg 7 /" sum_r[6:0] $end
$var reg 7 0" sum_i[6:0] $end
$var reg 7 1" dif_r[6:0] $end
$var reg 7 2" dif_i[6:0] $end
$scope module addition1 $end
$var reg 1 3" ci $end
$var reg 1 4" ci_msb $end
$var reg 6 5" da[5:0] $end
$var reg 6 6" db[5:0] $end
$var reg 7 7" do[6:0] $end
$var reg 1 8" co_lsb $end
$var reg 6 9" db_aux[5:0] $end
$var reg 5 :" msb_seg[4:0] $end
$var reg 3 ;" lsb_seg[2:0] $end
$var reg 3 <" cin_ext[2:0] $end
$var reg 5 =" cin_msb_ext[4:0] $end
$upscope $end
$scope module addition2 $end
$var reg 1 >" ci $end
$var reg 1 ?" ci_msb $end
$var reg 6 @" da[5:0] $end
$var reg 6 A" db[5:0] $end
$var reg 7 B" do[6:0] $end
$var reg 1 C" co_lsb $end
$var reg 6 D" db_aux[5:0] $end
$var reg 5 E" msb_seg[4:0] $end
$var reg 3 F" lsb_seg[2:0] $end
$var reg 3 G" cin_ext[2:0] $end
$var reg 5 H" cin_msb_ext[4:0] $end
$upscope $end
$scope module sub1 $end
$var reg 1 I" ci $end
$var reg 1 J" ci_msb $end
$var reg 6 K" da[5:0] $end
$var reg 6 L" db[5:0] $end
$var reg 7 M" do[6:0] $end
$var reg 1 N" co_lsb $end
$var reg 6 O" db_aux[5:0] $end
$var reg 5 P" msb_seg[4:0] $end
$var reg 3 Q" lsb_seg[2:0] $end
$var reg 3 R" cin_ext[2:0] $end
$var reg 5 S" cin_msb_ext[4:0] $end
$upscope $end
$scope module sub2 $end
$var reg 1 T" ci $end
$var reg 1 U" ci_msb $end
$var reg 6 V" da[5:0] $end
$var reg 6 W" db[5:0] $end
$var reg 7 X" do[6:0] $end
$var reg 1 Y" co_lsb $end
$var reg 6 Z" db_aux[5:0] $end
$var reg 5 [" msb_seg[4:0] $end
$var reg 3 \" lsb_seg[2:0] $end
$var reg 3 ]" cin_ext[2:0] $end
$var reg 5 ^" cin_msb_ext[4:0] $end
$upscope $end
$upscope $end
$scope module cmult_16 $end
$var reg 7 _" ar[6:0] $end
$var reg 7 `" ai[6:0] $end
$var reg 7 a" br[6:0] $end
$var reg 7 b" bi[6:0] $end
$var reg 14 c" qr[13:0] $end
$var reg 14 d" qi[13:0] $end
$var reg 14 e" ar_br[13:0] $end
$var reg 14 f" ar_bi[13:0] $end
$var reg 14 g" ai_br[13:0] $end
$var reg 14 h" ai_bi[13:0] $end
$var reg 15 i" qr_e[14:0] $end
$var reg 15 j" qi_e[14:0] $end
$upscope $end
$scope module rom16_1 $end
$var reg 1 k" clk $end
$var reg 1 l" rstn $end
$var reg 1 m" ena $end
$var reg 4 n" addr[3:0] $end
$var reg 7 o" wr_16[6:0] $end
$var reg 7 p" wi_16[6:0] $end
$upscope $end
$scope module bf2 $end
$var reg 1 q" clk $end
$var reg 1 r" rstn $end
$var reg 1 s" do_feed $end
$var reg 1 t" ena $end
$var reg 14 u" ar[13:0] $end
$var reg 14 v" ai[13:0] $end
$var reg 15 w" qr[14:0] $end
$var reg 15 x" qi[14:0] $end
$var reg 15 y" mi_r[14:0] $end
$var reg 15 z" mi_i[14:0] $end
$var reg 15 {" mo_r[14:0] $end
$var reg 15 |" mo_i[14:0] $end
$comment mem_r is not handled $end
$comment mem_i is not handled $end
$var reg 15 }" sum_r[14:0] $end
$var reg 15 !# sum_i[14:0] $end
$var reg 15 "# dif_r[14:0] $end
$var reg 15 ## dif_i[14:0] $end
$upscope $end
$scope module bf1 $end
$var reg 1 $# ci_add1 $end
$var reg 1 %# ci_add2 $end
$var reg 1 &# ci_sub1 $end
$var reg 1 '# ci_sub2 $end
$var reg 1 (# clk $end
$var reg 1 )# rstn $end
$var reg 1 *# do_feed $end
$var reg 1 +# do_rot $end
$var reg 1 ,# ena $end
$var reg 15 -# ar[14:0] $end
$var reg 15 .# ai[14:0] $end
$var reg 16 /# qr[15:0] $end
$var reg 16 0# qi[15:0] $end
$var reg 1 1# co_add1 $end
$var reg 1 2# co_add2 $end
$var reg 1 3# co_sub1 $end
$var reg 1 4# co_sub2 $end
$var reg 16 5# mi_r[15:0] $end
$var reg 16 6# mi_i[15:0] $end
$var reg 16 7# mo_r[15:0] $end
$var reg 16 8# mo_i[15:0] $end
$var reg 15 9# rot_r[14:0] $end
$var reg 15 :# rot_i[14:0] $end
$var reg 15 ;# rot_is[14:0] $end
$var reg 16 <# sum_i_aux[15:0] $end
$var reg 16 =# sum_r_aux[15:0] $end
$var reg 16 ># diff_i_aux[15:0] $end
$var reg 16 ?# diff_r_aux[15:0] $end
$comment mem_r is not handled $end
$comment mem_i is not handled $end
$var reg 16 @# sum_r[15:0] $end
$var reg 16 A# sum_i[15:0] $end
$var reg 16 B# dif_r[15:0] $end
$var reg 16 C# dif_i[15:0] $end
$scope module addition1 $end
$var reg 1 D# ci $end
$var reg 1 E# ci_msb $end
$var reg 15 F# da[14:0] $end
$var reg 15 G# db[14:0] $end
$var reg 16 H# do[15:0] $end
$var reg 1 I# co_lsb $end
$var reg 15 J# db_aux[14:0] $end
$var reg 14 K# msb_seg[13:0] $end
$var reg 3 L# lsb_seg[2:0] $end
$var reg 3 M# cin_ext[2:0] $end
$var reg 14 N# cin_msb_ext[13:0] $end
$upscope $end
$scope module addition2 $end
$var reg 1 O# ci $end
$var reg 1 P# ci_msb $end
$var reg 15 Q# da[14:0] $end
$var reg 15 R# db[14:0] $end
$var reg 16 S# do[15:0] $end
$var reg 1 T# co_lsb $end
$var reg 15 U# db_aux[14:0] $end
$var reg 14 V# msb_seg[13:0] $end
$var reg 3 W# lsb_seg[2:0] $end
$var reg 3 X# cin_ext[2:0] $end
$var reg 14 Y# cin_msb_ext[13:0] $end
$upscope $end
$scope module sub1 $end
$var reg 1 Z# ci $end
$var reg 1 [# ci_msb $end
$var reg 15 \# da[14:0] $end
$var reg 15 ]# db[14:0] $end
$var reg 16 ^# do[15:0] $end
$var reg 1 _# co_lsb $end
$var reg 15 `# db_aux[14:0] $end
$var reg 14 a# msb_seg[13:0] $end
$var reg 3 b# lsb_seg[2:0] $end
$var reg 3 c# cin_ext[2:0] $end
$var reg 14 d# cin_msb_ext[13:0] $end
$upscope $end
$scope module sub2 $end
$var reg 1 e# ci $end
$var reg 1 f# ci_msb $end
$var reg 15 g# da[14:0] $end
$var reg 15 h# db[14:0] $end
$var reg 16 i# do[15:0] $end
$var reg 1 j# co_lsb $end
$var reg 15 k# db_aux[14:0] $end
$var reg 14 l# msb_seg[13:0] $end
$var reg 3 m# lsb_seg[2:0] $end
$var reg 3 n# cin_ext[2:0] $end
$var reg 14 o# cin_msb_ext[13:0] $end
$upscope $end
$upscope $end
$upscope $end
$upscope $end
$enddefinitions $end
#0
0!
0"
x#
b00000 $
b00000 %
b0000000000000000 &
b0000000000000000 '
0(
0)
0*
0+
1,
1-
1.
1/
10
11
02
03
14
15
06
07
18
19
0:
1;
0<
1=
0>
1?
0@
1A
0B
0C
b00000 D
b00000 E
0F
0G
1H
1I
0J
0K
1L
1M
b0000000000000000 N
b0000000000000000 O
b00 P
b0000 Q
b000000 R
b000000 S
b0000000 T
b0000000 U
b0111111 V
b0000000 W
b00000000000000 X
b00000000000000 Y
b000000000000000 Z
b000000000000000 [
b0000000000000000 \
b0000000000000000 ]
b0100 ^
b0000 _
1`
0a
0b
0c
b00000 d
b00000 e
b000000 f
b000000 g
b000000 h
b000000 i
b000000 j
b000000 k
b000000 l
b000000 m
b000000 n
b000000 o
1p
0q
1r
0s
1t
0u
0v
0w
0x
b000000 y
b000000 z
b0000000 {
b0000000 |
0}
0!"
1""
1#"
b0000000 $"
b0000000 %"
b0000000 &"
b0000000 '"
b000000 ("
b000000 )"
bxxxxxx *"
b0000000 +"
b0000100 ,"
b1111100 -"
b0000000 ."
b0000100 /"
b0000000 0"
b0000000 1"
b1111100 2"
03"
14"
b000000 5"
b000000 6"
b0000100 7"
08"
b000000 9"
b00001 :"
b000 ;"
b000 <"
b00001 ="
0>"
0?"
b000000 @"
b000000 A"
b0000000 B"
0C"
b000000 D"
b00000 E"
b000 F"
b000 G"
b00000 H"
1I"
1J"
b000000 K"
b000000 L"
b0000000 M"
1N"
b111111 O"
b00000 P"
b100 Q"
b001 R"
b00001 S"
1T"
0U"
b000000 V"
b000000 W"
b1111100 X"
1Y"
b111111 Z"
b11111 ["
b100 \"
b001 ]"
b00000 ^"
b0000000 _"
b0000000 `"
b0111111 a"
b0000000 b"
b00000000000000 c"
b00000000000000 d"
b00000000000000 e"
b00000000000000 f"
b00000000000000 g"
b00000000000000 h"
b000000000000001 i"
b000000000000001 j"
1k"
0l"
0m"
b0100 n"
b0111111 o"
b0000000 p"
1q"
0r"
0s"
0t"
b00000000000000 u"
b00000000000000 v"
b000000000000000 w"
b000000000000000 x"
b000000000000000 y"
b000000000000000 z"
b000000000000000 {"
b000000000000000 |"
b000000000000000 }"
b000000000000000 !#
b000000000000000 "#
b000000000000000 ##
1$#
0%#
1&#
0'#
1(#
0)#
0*#
0+#
0,#
b000000000000000 -#
b000000000000000 .#
b0000000000000000 /#
b0000000000000000 0#
01#
02#
13#
14#
b0000000000000000 5#
b0000000000000000 6#
b0000000000000000 7#
b0000000000000000 8#
b000000000000000 9#
b000000000000000 :#
bxxxxxxxxxxxxxxx ;#
b0000000000000000 <#
b0000000000000100 =#
b1111111111111100 >#
b0000000000000000 ?#
b0000000000000100 @#
b0000000000000000 A#
b0000000000000000 B#
b1111111111111100 C#
0D#
1E#
b000000000000000 F#
b000000000000000 G#
b0000000000000100 H#
0I#
b000000000000000 J#
b00000000000001 K#
b000 L#
b000 M#
b00000000000001 N#
0O#
0P#
b000000000000000 Q#
b000000000000000 R#
b0000000000000000 S#
0T#
b000000000000000 U#
b00000000000000 V#
b000 W#
b000 X#
b00000000000000 Y#
1Z#
1[#
b000000000000000 \#
b000000000000000 ]#
b0000000000000000 ^#
1_#
b111111111111111 `#
b00000000000000 a#
b100 b#
b001 c#
b00000000000001 d#
1e#
0f#
b000000000000000 g#
b000000000000000 h#
b1111111111111100 i#
1j#
b111111111111111 k#
b11111111111111 l#
b100 m#
b001 n#
b00000000000000 o#
#500
08
09
0`
0t
0k"
0q"
0(#
#1000
18
19
1`
1t
1k"
1q"
1(#
#1250
1!
1:
1a
1u
1l"
1r"
1)#
#1500
08
09
0`
0t
0k"
0q"
0(#
#2000
1"
b01111 $
b01001 %
18
19
1C
b01111 D
b01001 E
1`
1c
b01111 d
b01001 e
b001111 h
b001001 i
b001111 l
b001001 m
b110001 n
b110111 o
1t
1x
1k"
1m"
1q"
1t"
1(#
1,#
#2500
08
09
0`
0t
0k"
0q"
0(#
#3000
b00001 $
b10111 %
b0000000000000100 &
18
19
b00001 D
b10111 E
b0000000000000100 N
b01 P
b0001 Q
b0101101 V
b1010011 W
b0000000000000100 \
b0101 ^
b0001 _
1`
b00001 d
b10111 e
b000001 h
b110111 i
b000001 l
b110111 m
b111111 n
b001001 o
1t
b0101101 a"
b1010011 b"
1k"
b0101 n"
b0101101 o"
b1010011 p"
1q"
1(#
1*#
1+#
b0000000000000100 /#
b1111111111111100 6#
#3500
08
09
0`
0t
0k"
0q"
0(#
#4000
b01000 $
b11001 %
b0000000000000000 &
b1111111111111100 '
18
19
b01000 D
b11001 E
b0000000000000000 N
b1111111111111100 O
b00 P
b0010 Q
b0000000 V
b1000001 W
b0000000000000000 \
b1111111111111100 ]
b0110 ^
b0010 _
1`
b01000 d
b11001 e
b001000 h
b111001 i
b001000 l
b111001 m
b111000 n
b000111 o
1t
b0000000 a"
b1000001 b"
1k"
b0110 n"
b0000000 o"
b1000001 p"
1q"
1s"
1(#
0*#
0+#
b0000000000000000 /#
b1111111111111100 0#
b0000000000000000 6#
b1111111111111100 8#
b1111111111111100 <#
b1111111111111000 >#
b1111111111111100 A#
b1111111111111000 C#
b111111111111100 Q#
b1111111111111100 S#
b11111111111111 V#
b111111111111100 g#
b1111111111111000 i#
b11111111111110 l#
#4500
08
09
0`
0t
0k"
0q"
0(#
#5000
b11011 $
b0000000000000100 &
b0000000000000000 '
18
19
b11011 D
b0000000000000100 N
b0000000000000000 O
b0011 Q
b1010011 V
b1010011 W
b0000000000000100 \
b0000000000000000 ]
b0111 ^
b0011 _
1`
b11011 d
b111011 h
b111011 l
b000101 n
1t
b1010011 a"
b1010011 b"
1k"
b0111 n"
b1010011 o"
b1010011 p"
1q"
1(#
1*#
b0000000000000100 /#
b0000000000000000 0#
b1111111111111100 6#
b0000000000000000 8#
b0000000000000000 <#
b1111111111111100 >#
b0000000000000000 A#
b1111111111111100 C#
b000000000000000 Q#
b0000000000000000 S#
b00000000000000 V#
b000000000000000 g#
b1111111111111100 i#
b11111111111111 l#
#5500
08
09
0`
0t
0k"
0q"
0(#
#6000
b11111 %
b0000000000000000 &
b1111111111111100 '
18
19
b11111 E
b0000000000000000 N
b1111111111111100 O
b10 P
b0100 Q
b0000100 T
b0111111 V
b0000000 W
b00000001111110 X
b0000000000000000 \
b1111111111111100 ]
b1000 ^
b0100 _
1`
b11111 e
b111111 i
b111111 m
b000001 o
1t
1v
1w
b0000100 {
b1111100 %"
b0000100 _"
b0111111 a"
b0000000 b"
b00000001111110 c"
b00000011111100 e"
b000000011111101 i"
1k"
b1000 n"
b0111111 o"
b0000000 p"
1q"
0s"
b00000001111110 u"
b000000001111110 y"
b000000001111110 }"
b111111110000010 "#
1(#
0*#
b0000000000000000 /#
b1111111111111100 0#
b0000000000000000 6#
b1111111111111100 8#
b1111111111111100 <#
b1111111111111000 >#
b1111111111111100 A#
b1111111111111000 C#
b111111111111100 Q#
b1111111111111100 S#
b11111111111111 V#
b111111111111100 g#
b1111111111111000 i#
b11111111111110 l#
#6500
08
09
0`
0t
0k"
0q"
0(#
#7000
b11100 $
b10101 %
b0000000000000100 &
b0000000000000000 '
18
19
b11100 D
b10101 E
b0000000000000100 N
b0000000000000000 O
b11 P
b0101 Q
b0111010 V
b1101000 W
b00000001110100 X
b11111111010000 Y
b0000000000000100 \
b0000000000000000 ]
b1001 ^
b0101 _
1`
b11100 d
b10101 e
b111100 h
b110101 i
b111100 l
b110101 m
b000100 n
b001011 o
1t
b0111010 a"
b1101000 b"
b00000001110100 c"
b11111111010000 d"
b00000011101000 e"
b11111110100000 f"
b000000011101001 i"
b111111110100001 j"
1k"
b1001 n"
b0111010 o"
b1101000 p"
1q"
b00000001110100 u"
b11111111010000 v"
b000000001110100 y"
b111111111010000 z"
b000000001110100 }"
b111111111010000 !#
b111111110001100 "#
b000000000110000 ##
1(#
1*#
1+#
b0000000000000100 /#
b0000000000000000 0#
b1111111111111100 6#
b0000000000000000 8#
b0000000000000000 <#
b1111111111111100 >#
b0000000000000000 A#
b1111111111111100 C#
b000000000000000 Q#
b0000000000000000 S#
b00000000000000 V#
b000000000000000 g#
b1111111111111100 i#
b11111111111111 l#
#7500
08
09
0`
0t
0k"
0q"
0(#
#8000
b10100 $
b11101 %
b0000000000000000 &
b1111111111111100 '
1-
0/
18
19
b10100 D
b11101 E
1L
0M
b0000000000000000 N
b1111111111111100 O
b10 P
b0110 Q
b0101101 V
b1010011 W
b00000001011010 X
b11111110100110 Y
b000000011011000 Z
b111111110100110 [
b0000000000000000 \
b1111111111111100 ]
b1010 ^
b0110 _
1`
b10100 d
b11101 e
b110100 h
b111101 i
b110100 l
b111101 m
b001100 n
b000011 o
1t
b0101101 a"
b1010011 b"
b00000001011010 c"
b11111110100110 d"
b00000010110100 e"
b11111101001100 f"
b000000010110101 i"
b111111101001101 j"
1k"
b1010 n"
b0101101 o"
b1010011 p"
1q"
1s"
b00000001011010 u"
b11111110100110 v"
b000000011011000 w"
b111111110100110 x"
b000000000100100 y"
b000000001011010 z"
b000000001111110 {"
b000000011011000 }"
b111111110100110 !#
b000000000100100 "#
b000000001011010 ##
1(#
0*#
0+#
b000000011011000 -#
b111111110100110 .#
b0000000000000000 /#
b1111111111111100 0#
13#
04#
b0000000011011000 5#
b1111111110100110 6#
b1111111111111100 8#
b000000011011000 9#
b111111110100110 :#
b1111111110100010 <#
b0000000011011100 =#
b0000000001010110 >#
b1111111100101000 ?#
b0000000011011100 @#
b1111111110100010 A#
b1111111100101000 B#
b0000000001010110 C#
b000000011011000 G#
b0000000011011100 H#
b000000011011000 J#
b00000000110111 K#
b000 L#
b111111111111100 Q#
b111111110100110 R#
b1111111110100010 S#
b111111110100110 U#
b11111111101000 V#
b010 W#
b000000011011000 ]#
b1111111100101000 ^#
1_#
b111111100100111 `#
b11111111001010 a#
b100 b#
b111111111111100 g#
b111111110100110 h#
b0000000001010110 i#
0j#
b000000001011001 k#
b00000000010101 l#
b010 m#
#8500
08
09
0`
0t
0k"
0q"
0(#
#9000
b11000 $
b10111 %
b0000000110000000 &
b1111111100000010 '
0+
1-
1/
18
19
b11000 D
b10111 E
0K
1L
1M
b0000000110000000 N
b1111111100000010 O
b0111 Q
b0011000 V
b1000110 W
b00000000110000 X
b11111110001100 Y
b000000010100100 Z
b111111101011100 [
b0000000110000000 \
b1111111100000010 ]
b1011 ^
b0111 _
1`
b11000 d
b10111 e
b111000 h
b110111 i
b111000 l
b110111 m
b001000 n
b001001 o
1t
b0011000 a"
b1000110 b"
b00000000110000 c"
b11111110001100 d"
b00000001100000 e"
b11111100011000 f"
b000000001100001 i"
b111111100011001 j"
1k"
b1011 n"
b0011000 o"
b1000110 p"
1q"
b00000000110000 u"
b11111110001100 v"
b000000010100100 w"
b111111101011100 x"
b000000001000100 y"
b000000001000100 z"
b000000001110100 {"
b111111111010000 |"
b000000010100100 }"
b111111101011100 !#
b000000001000100 "#
b000000001000100 ##
1(#
1*#
b000000010100100 -#
b111111101011100 .#
b0000000110000000 /#
b1111111100000010 0#
02#
13#
14#
b0000000000110100 5#
b0000000001000110 6#
b0000000011011000 7#
b1111111110100110 8#
b000000010100100 9#
b111111101011100 :#
b1111111100000010 <#
b0000000110000000 =#
b0000000001000110 >#
b0000000000110100 ?#
b0000000110000000 @#
b1111111100000010 A#
b0000000000110100 B#
b0000000001000110 C#
b000000011011000 F#
b000000010100100 G#
b0000000110000000 H#
b000000010100100 J#
b00000001100000 K#
b000 L#
b111111110100110 Q#
b111111101011100 R#
b1111111100000010 S#
0T#
b111111101011100 U#
b11111111000000 V#
b010 W#
b000000011011000 \#
b000000010100100 ]#
b0000000000110100 ^#
1_#
b111111101011011 `#
b00000000001101 a#
b100 b#
b111111110100110 g#
b111111101011100 h#
b0000000001000110 i#
1j#
b000000010100011 k#
b00000000010001 l#
b110 m#
#9500
08
09
0`
0t
0k"
0q"
0(#
#10000
b00111 $
b01000 %
b0000000000110100 &
b0000000001000110 '
1+
0,
0.
18
19
b00111 D
b01000 E
0H
0I
1K
b0000000000110100 N
b0000000001000110 O
b00 P
b1000 Q
b010110 R
b010001 S
b0000000 T
b1111100 U
b0111111 V
b0000000 W
b00000000000000 X
b11111110000010 Y
b000000000100100 Z
b000000001011010 [
b0000000000110100 \
b0000000001000110 ]
b1100 ^
b1000 _
1`
1b
b00111 d
b01000 e
b010110 f
b010001 g
b001000 h
b000001 i
b001111 j
b001001 k
b010110 l
b010001 m
b001000 n
b000001 o
1t
0v
0w
b010110 y
b010001 z
b0000000 {
b1111100 |
0""
0#"
b0010110 $"
b0010001 %"
b1111100 '"
b010110 ("
b010001 )"
b0001101 +"
b0011010 ,"
b1101011 -"
b1101110 ."
b0011010 /"
b0001101 0"
b1101110 1"
b1101011 2"
b010110 6"
b0011010 7"
b010110 9"
b00110 :"
b010 ;"
b111100 @"
b010001 A"
b0001101 B"
b010001 D"
b00011 E"
b001 F"
b010110 L"
b1101110 M"
0N"
b101001 O"
b11011 P"
b010 Q"
b111100 V"
b010001 W"
b1101011 X"
0Y"
b101110 Z"
b11010 ["
b011 \"
b0000000 _"
b1111100 `"
b0111111 a"
b0000000 b"
b00000000000000 c"
b11111110000010 d"
b00000000000000 e"
b00000000000000 f"
b11111100000100 g"
b000000000000001 i"
b111111100000101 j"
1k"
b1100 n"
b0111111 o"
b0000000 p"
1q"
0s"
b00000000000000 u"
b11111110000010 v"
b000000000100100 w"
b000000001011010 x"
b000000000000000 y"
b111111110000010 z"
b000000000100100 {"
b000000001011010 |"
b000000000100100 }"
b111111111011100 !#
b000000000100100 "#
b000000011011000 ##
1(#
0*#
b000000000100100 -#
b000000001011010 .#
b0000000000110100 /#
b0000000001000110 0#
12#
b0000000000100100 5#
b0000000001011010 6#
b0000000000110100 7#
b0000000001000110 8#
b000000000100100 9#
b000000001011010 :#
b0000000010011100 <#
b0000000001011100 =#
b1111111111101000 >#
b0000000000010000 ?#
b0000000001011100 @#
b0000000010011100 A#
b0000000000010000 B#
b1111111111101000 C#
b000000000110100 F#
b000000000100100 G#
b0000000001011100 H#
b000000000100100 J#
b00000000010111 K#
b000000001000110 Q#
b000000001011010 R#
b0000000010011100 S#
1T#
b000000001011010 U#
b00000000100111 V#
b100 W#
b000000000110100 \#
b000000000100100 ]#
b0000000000010000 ^#
b111111111011011 `#
b00000000000100 a#
b000000001000110 g#
b000000001011010 h#
b1111111111101000 i#
b111111110100101 k#
b11111111111010 l#
b100 m#
#10500
08
09
0`
0t
0k"
0q"
0(#
#11000
b11001 $
b11100 %
b0000000001101100 &
b0000000000010110 '
0+
0,
18
19
b11001 D
b11100 E
0H
0K
b0000000001101100 N
b0000000000010110 O
b01 P
b1001 Q
b111010 R
b110011 S
b0011000 V
b1000110 W
b11111110001100 X
b11111111010000 Y
b000000001000100 Z
b000000001000100 [
b0000000001101100 \
b0000000000010110 ]
b1101 ^
b1001 _
1`
b11001 d
b11100 e
b111010 f
b110011 g
b001000 h
b111011 i
b000001 j
b110111 k
b111010 l
b110011 m
b001000 n
b111011 o
1t
b111010 y
b110011 z
0""
b1111010 $"
b1110011 %"
b111010 ("
b110011 )"
b1101111 +"
b1111110 ,"
b0001001 -"
b0001010 ."
b1111110 /"
b1101111 0"
b0001010 1"
b0001001 2"
b111010 6"
b1111110 7"
b111010 9"
b11111 :"
b010 ;"
b110011 A"
b1101111 B"
b110011 D"
b11011 E"
b011 F"
b111010 L"
b0001010 M"
0N"
b000101 O"
b00010 P"
b010 Q"
b110011 W"
b0001001 X"
b001100 Z"
b00010 ["
b001 \"
b0011000 a"
b1000110 b"
b11111110001100 c"
b11111111010000 d"
b11111110100000 g"
b00000011101000 h"
b111111100011001 i"
b111111110100001 j"
1k"
b1101 n"
b0011000 o"
b1000110 p"
1q"
b11111110001100 u"
b11111111010000 v"
b000000001000100 w"
b000000001000100 x"
b111111110001100 y"
b111111111010000 z"
b000000001000100 {"
b000000001000100 |"
b111111111010000 }"
b000000000010100 !#
b000000010111000 "#
b000000001110100 ##
1(#
1*#
1+#
b000000001000100 -#
b000000001000100 .#
b0000000001101100 /#
b0000000000010110 0#
02#
b1111111111100000 5#
b0000000010011010 6#
b0000000000100100 7#
b0000000001011010 8#
b000000001000100 9#
b111111110111100 :#
b0000000000010110 <#
b0000000001101100 =#
b0000000010011010 >#
b1111111111100000 ?#
b0000000001101100 @#
b0000000000010110 A#
b1111111111100000 B#
b0000000010011010 C#
b000000000100100 F#
b000000001000100 G#
b0000000001101100 H#
b000000001000100 J#
b00000000011011 K#
b000000001011010 Q#
b111111110111100 R#
b0000000000010110 S#
0T#
b111111110111100 U#
b00000000000101 V#
b010 W#
b000000000100100 \#
b000000001000100 ]#
b1111111111100000 ^#
b111111110111011 `#
b11111111111000 a#
b000000001011010 g#
b111111110111100 h#
b0000000010011010 i#
b000000001000011 k#
b00000000100110 l#
b110 m#
#11500
08
09
0`
0t
0k"
0q"
0(#
