tests/testfiles/flipFlops/dffe/dffe.vcd
$date
	Mon Feb 20 11:26:34 2023
$end
$version
	Icarus Verilog
$end
$timescale
	1ps
$end
$scope module tb_DFFE $end
$var reg 1 ! clk $end
$upscope $end
$scope module tb_DFFE $end
$var reg 2 " D [1:0] $end
$upscope $end
$scope module tb_DFFE $end
$var wire 2 # Q [1:0] $end
$upscope $end
$enddefinitions $end
#0
$dumpvars
bx #
bx "
0!
$end
#10000
1!
#20000
0!
#30000
1!
#40000
0!
#50000
1!
#60000
0!
#70000
1!
#80000
0!
#90000
1!
#100000
0!
#110000
1!
#120000
0!
#130000
1!
#140000
0!
#150000
1!
#160000
0!
#170000
1!
#180000
0!
#190000
1!
#200000
b0 "
0!
#210000
1!
#220000
0!
#230000
1!
#240000
0!
#250000
1!
#260000
0!
#270000
1!
#280000
0!
#290000
1!
#300000
b1 "
0!
#310000
1!
#320000
0!
#330000
1!
#340000
0!
#350000
1!
#360000
0!
#370000
1!
#380000
0!
#390000
1!
#400000
b10 "
0!
#410000
1!
#420000
0!
#430000
1!
#440000
0!
#450000
1!
#460000
0!
#470000
1!
#480000
0!
#490000
1!
#500000
b11 "
0!
#510000
1!
#520000
0!
#530000
1!
#540000
0!
#550000
1!
#560000
0!
#570000
1!
#580000
0!
#590000
1!
#600000
0!
#610000
b11 #
1!
#620000
0!
#630000
1!
#640000
0!
#650000
1!
#660000
0!
#670000
1!
#680000
0!
#690000
1!
#700000
b0 "
0!
#710000
b0 #
1!
#720000
0!
#730000
1!
#740000
0!
#750000
1!
#760000
0!
#770000
1!
#780000
0!
#790000
1!
#800000
b1 "
0!
#810000
b1 #
1!
#820000
0!
#830000
1!
#840000
0!
#850000
1!
#860000
0!
#870000
1!
#880000
0!
#890000
1!
#900000
b10 "
0!
#910000
b10 #
1!
#920000
0!
#930000
1!
#940000
0!
#950000
1!
#960000
0!
#970000
1!
#980000
0!
#990000
1!
#1000000
b11 "
0!
#1010000
b11 #
1!
