tests/testfiles/i2c_controller/i2c_controller.vcd
$date
	Thu Jan 11 15:48:46 2024
$end
$version
	Icarus Verilog
$end
$timescale
	1ps
$end
$scope module i2c_controller_tb $end
$var wire 1 ! i2c_sda $end
$var wire 1 " ready $end
$var wire 1 # i2c_scl $end
$var wire 8 $ data_out [7:0] $end
$var reg 7 % addr [6:0] $end
$var reg 1 & clk $end
$var reg 8 ' data_in [7:0] $end
$var reg 1 ( enable $end
$var reg 1 ) rst $end
$var reg 1 * rw $end
$upscope $end
$enddefinitions $end
$comment Show the parameter values. $end
$dumpall
$end
#0
$dumpvars
x*
1)
x(
bx '
0&
bx %
bx $
1#
0"
1!
$end
#1000
1&
#2000
0&
#3000
1&
#4000
0&
#5000
1&
#6000
0&
#7000
1&
#8000
0&
#9000
1&
#10000
0&
#11000
1&
#12000
0&
#13000
1&
#14000
0&
#15000
1&
#16000
0&
#17000
1&
#18000
0&
#19000
1&
#20000
0&
#21000
1&
#22000
0&
#23000
1&
#24000
0&
#25000
1&
#26000
0&
#27000
1&
#28000
0&
#29000
1&
#30000
0&
#31000
1&
#32000
0&
#33000
1&
#34000
0&
#35000
1&
#36000
0&
#37000
1&
#38000
0&
#39000
1&
#40000
0&
#41000
1&
#42000
0&
#43000
1&
#44000
0&
#45000
1&
#46000
0&
#47000
1&
#48000
0&
#49000
1&
#50000
0&
#51000
1&
#52000
0&
#53000
1&
#54000
0&
#55000
1&
#56000
0&
#57000
1&
#58000
0&
#59000
1&
#60000
0&
#61000
1&
#62000
0&
#63000
1&
#64000
0&
#65000
1&
#66000
0&
#67000
1&
#68000
0&
#69000
1&
#70000
0&
#71000
1&
#72000
0&
#73000
1&
#74000
0&
#75000
1&
#76000
0&
#77000
1&
#78000
0&
#79000
1&
#80000
0&
#81000
1&
#82000
0&
#83000
1&
#84000
0&
#85000
1&
#86000
0&
#87000
1&
#88000
0&
#89000
1&
#90000
0&
#91000
1&
#92000
0&
#93000
1&
#94000
0&
#95000
1&
#96000
0&
#97000
1&
#98000
0&
#99000
1&
#100000
1"
0&
1(
0*
b10101010 '
b101010 %
0)
#101000
1&
#102000
0&
#103000
0"
1&
#104000
0&
#105000
1&
#106000
0&
#107000
0!
1&
#108000
0&
#109000
1&
#110000
0&
0(
#111000
1&
#112000
0&
#113000
1&
#114000
0&
#115000
0#
1&
#116000
0&
#117000
1&
#118000
0&
#119000
1#
1&
#120000
0&
#121000
1&
#122000
0&
#123000
1!
0#
1&
#124000
0&
#125000
1&
#126000
0&
#127000
1#
1&
#128000
0&
#129000
1&
#130000
0&
#131000
0!
0#
1&
#132000
0&
#133000
1&
#134000
0&
#135000
1#
1&
#136000
0&
#137000
1&
#138000
0&
#139000
1!
0#
1&
#140000
0&
#141000
1&
#142000
0&
#143000
1#
1&
#144000
0&
#145000
1&
#146000
0&
#147000
0!
0#
1&
#148000
0&
#149000
1&
#150000
0&
#151000
1#
1&
#152000
0&
#153000
1&
#154000
0&
#155000
1!
0#
1&
#156000
0&
#157000
1&
#158000
0&
#159000
1#
1&
#160000
0&
#161000
1&
#162000
0&
#163000
0!
0#
1&
#164000
0&
#165000
1&
#166000
0&
#167000
1#
1&
#168000
0&
#169000
1&
#170000
0&
#171000
0#
1&
#172000
0&
#173000
1&
#174000
0&
#175000
1#
1&
#176000
0&
#177000
1&
#178000
0&
#179000
0!
0#
1&
#180000
0&
#181000
1&
#182000
0&
#183000
1#
1&
#184000
0&
#185000
1&
#186000
0&
#187000
1!
0#
1&
#188000
0&
#189000
1&
#190000
0&
#191000
1#
1&
#192000
0&
#193000
1&
#194000
0&
#195000
0!
0#
1&
#196000
0&
#197000
1&
#198000
0&
#199000
1#
1&
#200000
0&
#201000
1&
#202000
0&
#203000
1!
0#
1&
#204000
0&
#205000
1&
#206000
0&
#207000
1#
1&
#208000
0&
#209000
1&
#210000
0&
#211000
0!
0#
1&
#212000
0&
#213000
1&
#214000
0&
#215000
1#
1&
#216000
0&
#217000
1&
#218000
0&
#219000
1!
0#
1&
#220000
0&
#221000
1&
#222000
0&
#223000
1#
1&
#224000
0&
#225000
1&
#226000
0&
#227000
0!
0#
1&
#228000
0&
#229000
1&
#230000
0&
#231000
1#
1&
#232000
0&
#233000
1&
#234000
0&
#235000
1!
0#
1&
#236000
0&
#237000
1&
#238000
0&
#239000
1#
1&
#240000
0&
#241000
1&
#242000
0&
#243000
0!
0#
1&
#244000
0&
#245000
1&
#246000
0&
#247000
1#
1&
#248000
0&
#249000
1&
#250000
0&
#251000
0#
1&
#252000
0&
#253000
1&
#254000
0&
#255000
1#
1&
#256000
0&
#257000
1&
#258000
0&
#259000
1!
1#
1&
#260000
0&
#261000
1&
#262000
0&
#263000
1"
1&
