tests/testfiles/apprx_add_experiments_WI/tb_fft16_ofdm_apx_0.vcd
$date
  Wed Dec 20 13:36:00 2023
$end
$version
  GHDL v0
$end
$timescale
  1 ps
$end
$scope module standard $end
$upscope $end
$scope module std_logic_1164 $end
$upscope $end
$scope module numeric_std $end
$upscope $end
$scope module textio $end
$upscope $end
$scope module std_logic_textio $end
$upscope $end
$scope module math_real $end
$upscope $end
$scope module tb_fft16_ofdm_apx $end
$var reg 1 ! rstn $end
$var reg 1 " ena $end
$var reg 1 # q_valid $end
$var reg 13 $ xr[12:0] $end
$var reg 13 % xi[12:0] $end
$var reg 32 & qr[31:0] $end
$var reg 32 ' qi[31:0] $end
$var reg 1 ( co_add1_1 $end
$var reg 1 ) co_add1_2 $end
$var reg 1 * co_add2_1 $end
$var reg 1 + co_add2_2 $end
$var reg 1 , co_sub1_1 $end
$var reg 1 - co_sub1_2 $end
$var reg 1 . co_sub2_1 $end
$var reg 1 / co_sub2_2 $end
$var reg 1 0 ci_add1_1 $end
$var reg 1 1 ci_add1_2 $end
$var reg 1 2 ci_add2_1 $end
$var reg 1 3 ci_add2_2 $end
$var reg 1 4 ci_sub1_1 $end
$var reg 1 5 ci_sub1_2 $end
$var reg 1 6 ci_sub2_1 $end
$var reg 1 7 ci_sub2_2 $end
$var reg 1 8 clk $end
$scope module dut $end
$var reg 1 9 clk $end
$var reg 1 : rstn $end
$var reg 1 ; ci_add1_1 $end
$var reg 1 < ci_add2_1 $end
$var reg 1 = ci_sub1_1 $end
$var reg 1 > ci_sub2_1 $end
$var reg 1 ? ci_add1_2 $end
$var reg 1 @ ci_add2_2 $end
$var reg 1 A ci_sub1_2 $end
$var reg 1 B ci_sub2_2 $end
$var reg 1 C ena $end
$var reg 13 D xr[12:0] $end
$var reg 13 E xi[12:0] $end
$var reg 1 F co_add1_1 $end
$var reg 1 G co_add2_1 $end
$var reg 1 H co_sub1_1 $end
$var reg 1 I co_sub2_1 $end
$var reg 1 J co_add1_2 $end
$var reg 1 K co_add2_2 $end
$var reg 1 L co_sub1_2 $end
$var reg 1 M co_sub2_2 $end
$var reg 32 N qr[31:0] $end
$var reg 32 O qi[31:0] $end
$var reg 2 P do_rot[1:0] $end
$var reg 4 Q do_feed[3:0] $end
$var reg 14 R dr_bf4[13:0] $end
$var reg 14 S di_bf4[13:0] $end
$var reg 15 T dr_bf3[14:0] $end
$var reg 15 U di_bf3[14:0] $end
$var reg 15 V wr_16[14:0] $end
$var reg 15 W wi_16[14:0] $end
$var reg 30 X dr_mlt[29:0] $end
$var reg 30 Y di_mlt[29:0] $end
$var reg 31 Z dr_bf2[30:0] $end
$var reg 31 [ di_bf2[30:0] $end
$var reg 32 \ dr_bf1[31:0] $end
$var reg 32 ] di_bf1[31:0] $end
$var reg 4 ^ addr[3:0] $end
$var reg 4 _ cnt[3:0] $end
$scope module bf4 $end
$var reg 1 ` clk $end
$var reg 1 a rstn $end
$var reg 1 b do_feed $end
$var reg 1 c ena $end
$var reg 13 d ar[12:0] $end
$var reg 13 e ai[12:0] $end
$var reg 14 f qr[13:0] $end
$var reg 14 g qi[13:0] $end
$var reg 14 h mi_r[13:0] $end
$var reg 14 i mi_i[13:0] $end
$var reg 14 j mo_r[13:0] $end
$var reg 14 k mo_i[13:0] $end
$comment mem_r is not handled $end
$comment mem_i is not handled $end
$var reg 14 l sum_r[13:0] $end
$var reg 14 m sum_i[13:0] $end
$var reg 14 n dif_r[13:0] $end
$var reg 14 o dif_i[13:0] $end
$upscope $end
$scope module bf3 $end
$var reg 1 p ci_add1 $end
$var reg 1 q ci_add2 $end
$var reg 1 r ci_sub1 $end
$var reg 1 s ci_sub2 $end
$var reg 1 t clk $end
$var reg 1 u rstn $end
$var reg 1 v do_feed $end
$var reg 1 w do_rot $end
$var reg 1 x ena $end
$var reg 14 y ar[13:0] $end
$var reg 14 z ai[13:0] $end
$var reg 15 { qr[14:0] $end
$var reg 15 | qi[14:0] $end
$var reg 1 } co_add1 $end
$var reg 1 !" co_add2 $end
$var reg 1 "" co_sub1 $end
$var reg 1 #" co_sub2 $end
$var reg 15 $" mi_r[14:0] $end
$var reg 15 %" mi_i[14:0] $end
$var reg 15 &" mo_r[14:0] $end
$var reg 15 '" mo_i[14:0] $end
$var reg 14 (" rot_r[13:0] $end
$var reg 14 )" rot_i[13:0] $end
$var reg 14 *" rot_is[13:0] $end
$var reg 15 +" sum_i_aux[14:0] $end
$var reg 15 ," sum_r_aux[14:0] $end
$var reg 15 -" diff_i_aux[14:0] $end
$var reg 15 ." diff_r_aux[14:0] $end
$comment mem_r is not handled $end
$comment mem_i is not handled $end
$var reg 15 /" sum_r[14:0] $end
$var reg 15 0" sum_i[14:0] $end
$var reg 15 1" dif_r[14:0] $end
$var reg 15 2" dif_i[14:0] $end
$scope module addition1 $end
$var reg 1 3" ci $end
$var reg 1 4" ci_msb $end
$var reg 14 5" da[13:0] $end
$var reg 14 6" db[13:0] $end
$var reg 15 7" do[14:0] $end
$var reg 1 8" co_lsb $end
$var reg 14 9" db_aux[13:0] $end
$var reg 7 :" msb_seg[6:0] $end
$var reg 9 ;" lsb_seg[8:0] $end
$var reg 9 <" cin_ext[8:0] $end
$var reg 7 =" cin_msb_ext[6:0] $end
$upscope $end
$scope module addition2 $end
$var reg 1 >" ci $end
$var reg 1 ?" ci_msb $end
$var reg 14 @" da[13:0] $end
$var reg 14 A" db[13:0] $end
$var reg 15 B" do[14:0] $end
$var reg 1 C" co_lsb $end
$var reg 14 D" db_aux[13:0] $end
$var reg 7 E" msb_seg[6:0] $end
$var reg 9 F" lsb_seg[8:0] $end
$var reg 9 G" cin_ext[8:0] $end
$var reg 7 H" cin_msb_ext[6:0] $end
$upscope $end
$scope module sub1 $end
$var reg 1 I" ci $end
$var reg 1 J" ci_msb $end
$var reg 14 K" da[13:0] $end
$var reg 14 L" db[13:0] $end
$var reg 15 M" do[14:0] $end
$var reg 1 N" co_lsb $end
$var reg 14 O" db_aux[13:0] $end
$var reg 7 P" msb_seg[6:0] $end
$var reg 9 Q" lsb_seg[8:0] $end
$var reg 9 R" cin_ext[8:0] $end
$var reg 7 S" cin_msb_ext[6:0] $end
$upscope $end
$scope module sub2 $end
$var reg 1 T" ci $end
$var reg 1 U" ci_msb $end
$var reg 14 V" da[13:0] $end
$var reg 14 W" db[13:0] $end
$var reg 15 X" do[14:0] $end
$var reg 1 Y" co_lsb $end
$var reg 14 Z" db_aux[13:0] $end
$var reg 7 [" msb_seg[6:0] $end
$var reg 9 \" lsb_seg[8:0] $end
$var reg 9 ]" cin_ext[8:0] $end
$var reg 7 ^" cin_msb_ext[6:0] $end
$upscope $end
$upscope $end
$scope module cmult_16 $end
$var reg 15 _" ar[14:0] $end
$var reg 15 `" ai[14:0] $end
$var reg 15 a" br[14:0] $end
$var reg 15 b" bi[14:0] $end
$var reg 30 c" qr[29:0] $end
$var reg 30 d" qi[29:0] $end
$var reg 30 e" ar_br[29:0] $end
$var reg 30 f" ar_bi[29:0] $end
$var reg 30 g" ai_br[29:0] $end
$var reg 30 h" ai_bi[29:0] $end
$var reg 31 i" qr_e[30:0] $end
$var reg 31 j" qi_e[30:0] $end
$upscope $end
$scope module rom16_1 $end
$var reg 1 k" clk $end
$var reg 1 l" rstn $end
$var reg 1 m" ena $end
$var reg 4 n" addr[3:0] $end
$var reg 15 o" wr_16[14:0] $end
$var reg 15 p" wi_16[14:0] $end
$upscope $end
$scope module bf2 $end
$var reg 1 q" clk $end
$var reg 1 r" rstn $end
$var reg 1 s" do_feed $end
$var reg 1 t" ena $end
$var reg 30 u" ar[29:0] $end
$var reg 30 v" ai[29:0] $end
$var reg 31 w" qr[30:0] $end
$var reg 31 x" qi[30:0] $end
$var reg 31 y" mi_r[30:0] $end
$var reg 31 z" mi_i[30:0] $end
$var reg 31 {" mo_r[30:0] $end
$var reg 31 |" mo_i[30:0] $end
$comment mem_r is not handled $end
$comment mem_i is not handled $end
$var reg 31 }" sum_r[30:0] $end
$var reg 31 !# sum_i[30:0] $end
$var reg 31 "# dif_r[30:0] $end
$var reg 31 ## dif_i[30:0] $end
$upscope $end
$scope module bf1 $end
$var reg 1 $# ci_add1 $end
$var reg 1 %# ci_add2 $end
$var reg 1 &# ci_sub1 $end
$var reg 1 '# ci_sub2 $end
$var reg 1 (# clk $end
$var reg 1 )# rstn $end
$var reg 1 *# do_feed $end
$var reg 1 +# do_rot $end
$var reg 1 ,# ena $end
$var reg 31 -# ar[30:0] $end
$var reg 31 .# ai[30:0] $end
$var reg 32 /# qr[31:0] $end
$var reg 32 0# qi[31:0] $end
$var reg 1 1# co_add1 $end
$var reg 1 2# co_add2 $end
$var reg 1 3# co_sub1 $end
$var reg 1 4# co_sub2 $end
$var reg 32 5# mi_r[31:0] $end
$var reg 32 6# mi_i[31:0] $end
$var reg 32 7# mo_r[31:0] $end
$var reg 32 8# mo_i[31:0] $end
$var reg 31 9# rot_r[30:0] $end
$var reg 31 :# rot_i[30:0] $end
$var reg 31 ;# rot_is[30:0] $end
$var reg 32 <# sum_i_aux[31:0] $end
$var reg 32 =# sum_r_aux[31:0] $end
$var reg 32 ># diff_i_aux[31:0] $end
$var reg 32 ?# diff_r_aux[31:0] $end
$comment mem_r is not handled $end
$comment mem_i is not handled $end
$var reg 32 @# sum_r[31:0] $end
$var reg 32 A# sum_i[31:0] $end
$var reg 32 B# dif_r[31:0] $end
$var reg 32 C# dif_i[31:0] $end
$scope module addition1 $end
$var reg 1 D# ci $end
$var reg 1 E# ci_msb $end
$var reg 31 F# da[30:0] $end
$var reg 31 G# db[30:0] $end
$var reg 32 H# do[31:0] $end
$var reg 1 I# co_lsb $end
$var reg 31 J# db_aux[30:0] $end
$var reg 24 K# msb_seg[23:0] $end
$var reg 9 L# lsb_seg[8:0] $end
$var reg 9 M# cin_ext[8:0] $end
$var reg 24 N# cin_msb_ext[23:0] $end
$upscope $end
$scope module addition2 $end
$var reg 1 O# ci $end
$var reg 1 P# ci_msb $end
$var reg 31 Q# da[30:0] $end
$var reg 31 R# db[30:0] $end
$var reg 32 S# do[31:0] $end
$var reg 1 T# co_lsb $end
$var reg 31 U# db_aux[30:0] $end
$var reg 24 V# msb_seg[23:0] $end
$var reg 9 W# lsb_seg[8:0] $end
$var reg 9 X# cin_ext[8:0] $end
$var reg 24 Y# cin_msb_ext[23:0] $end
$upscope $end
$scope module sub1 $end
$var reg 1 Z# ci $end
$var reg 1 [# ci_msb $end
$var reg 31 \# da[30:0] $end
$var reg 31 ]# db[30:0] $end
$var reg 32 ^# do[31:0] $end
$var reg 1 _# co_lsb $end
$var reg 31 `# db_aux[30:0] $end
$var reg 24 a# msb_seg[23:0] $end
$var reg 9 b# lsb_seg[8:0] $end
$var reg 9 c# cin_ext[8:0] $end
$var reg 24 d# cin_msb_ext[23:0] $end
$upscope $end
$scope module sub2 $end
$var reg 1 e# ci $end
$var reg 1 f# ci_msb $end
$var reg 31 g# da[30:0] $end
$var reg 31 h# db[30:0] $end
$var reg 32 i# do[31:0] $end
$var reg 1 j# co_lsb $end
$var reg 31 k# db_aux[30:0] $end
$var reg 24 l# msb_seg[23:0] $end
$var reg 9 m# lsb_seg[8:0] $end
$var reg 9 n# cin_ext[8:0] $end
$var reg 24 o# cin_msb_ext[23:0] $end
$upscope $end
$upscope $end
$upscope $end
$upscope $end
$enddefinitions $end
#0
0!
0"
x#
b0000000000000 $
b0000000000000 %
b00000000000000000000000000000000 &
b00000000000000000000000000000000 '
0(
0)
0*
0+
1,
1-
1.
1/
00
01
02
03
04
05
06
07
18
19
0:
0;
0<
0=
0>
0?
0@
0A
0B
0C
b0000000000000 D
b0000000000000 E
0F
0G
1H
1I
0J
0K
1L
1M
b00000000000000000000000000000000 N
b00000000000000000000000000000000 O
b00 P
b0000 Q
b00000000000000 R
b00000000000000 S
b000000000000000 T
b000000000000000 U
b011111111111111 V
b000000000000000 W
b000000000000000000000000000000 X
b000000000000000000000000000000 Y
b0000000000000000000000000000000 Z
b0000000000000000000000000000000 [
b00000000000000000000000000000000 \
b00000000000000000000000000000000 ]
b0100 ^
b0000 _
1`
0a
0b
0c
b0000000000000 d
b0000000000000 e
b00000000000000 f
b00000000000000 g
b00000000000000 h
b00000000000000 i
b00000000000000 j
b00000000000000 k
b00000000000000 l
b00000000000000 m
b00000000000000 n
b00000000000000 o
0p
0q
0r
0s
1t
0u
0v
0w
0x
b00000000000000 y
b00000000000000 z
b000000000000000 {
b000000000000000 |
0}
0!"
1""
1#"
b000000000000000 $"
b000000000000000 %"
b000000000000000 &"
b000000000000000 '"
b00000000000000 ("
b00000000000000 )"
bxxxxxxxxxxxxxx *"
b000000000000000 +"
b000000000000000 ,"
b111111100000000 -"
b111111100000000 ."
b000000000000000 /"
b000000000000000 0"
b111111100000000 1"
b111111100000000 2"
03"
04"
b00000000000000 5"
b00000000000000 6"
b000000000000000 7"
08"
b00000000000000 9"
b0000000 :"
b000000000 ;"
b000000000 <"
b0000000 ="
0>"
0?"
b00000000000000 @"
b00000000000000 A"
b000000000000000 B"
0C"
b00000000000000 D"
b0000000 E"
b000000000 F"
b000000000 G"
b0000000 H"
1I"
0J"
b00000000000000 K"
b00000000000000 L"
b111111100000000 M"
1N"
b11111111111111 O"
b1111111 P"
b100000000 Q"
b000000001 R"
b0000000 S"
1T"
0U"
b00000000000000 V"
b00000000000000 W"
b111111100000000 X"
1Y"
b11111111111111 Z"
b1111111 ["
b100000000 \"
b000000001 ]"
b0000000 ^"
b000000000000000 _"
b000000000000000 `"
b011111111111111 a"
b000000000000000 b"
b000000000000000000000000000000 c"
b000000000000000000000000000000 d"
b000000000000000000000000000000 e"
b000000000000000000000000000000 f"
b000000000000000000000000000000 g"
b000000000000000000000000000000 h"
b0000000000000000000000000000001 i"
b0000000000000000000000000000001 j"
1k"
0l"
0m"
b0100 n"
b011111111111111 o"
b000000000000000 p"
1q"
0r"
0s"
0t"
b000000000000000000000000000000 u"
b000000000000000000000000000000 v"
b0000000000000000000000000000000 w"
b0000000000000000000000000000000 x"
b0000000000000000000000000000000 y"
b0000000000000000000000000000000 z"
b0000000000000000000000000000000 {"
b0000000000000000000000000000000 |"
b0000000000000000000000000000000 }"
b0000000000000000000000000000000 !#
b0000000000000000000000000000000 "#
b0000000000000000000000000000000 ##
0$#
0%#
0&#
0'#
1(#
0)#
0*#
0+#
0,#
b0000000000000000000000000000000 -#
b0000000000000000000000000000000 .#
b00000000000000000000000000000000 /#
b00000000000000000000000000000000 0#
01#
02#
13#
14#
b00000000000000000000000000000000 5#
b00000000000000000000000000000000 6#
b00000000000000000000000000000000 7#
b00000000000000000000000000000000 8#
b0000000000000000000000000000000 9#
b0000000000000000000000000000000 :#
bxxxxxxxxxxxxxxxxxxxxxxxxxxxxxxx ;#
b00000000000000000000000000000000 <#
b00000000000000000000000000000000 =#
b11111111111111111111111100000000 >#
b11111111111111111111111100000000 ?#
b00000000000000000000000000000000 @#
b00000000000000000000000000000000 A#
b11111111111111111111111100000000 B#
b11111111111111111111111100000000 C#
0D#
0E#
b0000000000000000000000000000000 F#
b0000000000000000000000000000000 G#
b00000000000000000000000000000000 H#
0I#
b0000000000000000000000000000000 J#
b000000000000000000000000 K#
b000000000 L#
b000000000 M#
b000000000000000000000000 N#
0O#
0P#
b0000000000000000000000000000000 Q#
b0000000000000000000000000000000 R#
b00000000000000000000000000000000 S#
0T#
b0000000000000000000000000000000 U#
b000000000000000000000000 V#
b000000000 W#
b000000000 X#
b000000000000000000000000 Y#
1Z#
0[#
b0000000000000000000000000000000 \#
b0000000000000000000000000000000 ]#
b11111111111111111111111100000000 ^#
1_#
b1111111111111111111111111111111 `#
b111111111111111111111111 a#
b100000000 b#
b000000001 c#
b000000000000000000000000 d#
1e#
0f#
b0000000000000000000000000000000 g#
b0000000000000000000000000000000 h#
b11111111111111111111111100000000 i#
1j#
b1111111111111111111111111111111 k#
b111111111111111111111111 l#
b100000000 m#
b000000001 n#
b000000000000000000000000 o#
#500
08
09
0`
0t
0k"
0q"
0(#
#1000
18
19
1`
1t
1k"
1q"
1(#
#1250
1!
1:
1a
1u
1l"
1r"
1)#
#1500
08
09
0`
0t
0k"
0q"
0(#
#2000
1"
b0101010111000 $
b0110010110110 %
18
19
1C
b0101010111000 D
b0110010110110 E
1`
1c
b0101010111000 d
b0110010110110 e
b00101010111000 h
b00110010110110 i
b00101010111000 l
b00110010110110 m
b11010101001000 n
b11001101001010 o
1t
1x
1k"
1m"
1q"
1t"
1(#
1,#
#2500
08
09
0`
0t
0k"
0q"
0(#
#3000
b0000000000000 $
b0001011100111 %
18
19
b0000000000000 D
b0001011100111 E
b01 P
b0001 Q
b010110101000001 V
b101001010111111 W
b0101 ^
b0001 _
1`
b0000000000000 d
b0001011100111 e
b00000000000000 h
b00001011100111 i
b00000000000000 l
b00001011100111 m
b00000000000000 n
b11110100011001 o
1t
b010110101000001 a"
b101001010111111 b"
1k"
b0101 n"
b010110101000001 o"
b101001010111111 p"
1q"
1(#
1*#
1+#
b11111111111111111111111100000000 5#
b11111111111111111111111100000000 6#
#3500
08
09
0`
0t
0k"
0q"
0(#
#4000
b0001001111110 $
b0010010011100 %
b11111111111111111111111100000000 &
b11111111111111111111111100000000 '
18
19
b0001001111110 D
b0010010011100 E
b11111111111111111111111100000000 N
b11111111111111111111111100000000 O
b00 P
b0010 Q
b000000000000000 V
b100000000000001 W
b11111111111111111111111100000000 \
b11111111111111111111111100000000 ]
b0110 ^
b0010 _
1`
b0001001111110 d
b0010010011100 e
b00001001111110 h
b00010010011100 i
b00001001111110 l
b00010010011100 m
b11110110000010 n
b11101101100100 o
1t
b000000000000000 a"
b100000000000001 b"
1k"
b0110 n"
b000000000000000 o"
b100000000000001 p"
1q"
1s"
1(#
0*#
0+#
b11111111111111111111111100000000 /#
b11111111111111111111111100000000 0#
b00000000000000000000000000000000 5#
b00000000000000000000000000000000 6#
b11111111111111111111111100000000 7#
b11111111111111111111111100000000 8#
b11111111111111111111111100000000 <#
b11111111111111111111111100000000 =#
b11111111111111111111111000000000 >#
b11111111111111111111111000000000 ?#
b11111111111111111111111100000000 @#
b11111111111111111111111100000000 A#
b11111111111111111111111000000000 B#
b11111111111111111111111000000000 C#
b1111111111111111111111100000000 F#
b11111111111111111111111100000000 H#
b111111111111111111111111 K#
b1111111111111111111111100000000 Q#
b11111111111111111111111100000000 S#
b111111111111111111111111 V#
b1111111111111111111111100000000 \#
b11111111111111111111111000000000 ^#
b111111111111111111111110 a#
b1111111111111111111111100000000 g#
b11111111111111111111111000000000 i#
b111111111111111111111110 l#
#4500
08
09
0`
0t
0k"
0q"
0(#
#5000
b1110101101111 $
b1100000110010 %
b00000000000000000000000000000000 &
b00000000000000000000000000000000 '
18
19
b1110101101111 D
b1100000110010 E
b00000000000000000000000000000000 N
b00000000000000000000000000000000 O
b0011 Q
b101001010111111 V
b101001010111111 W
b00000000000000000000000000000000 \
b00000000000000000000000000000000 ]
b0111 ^
b0011 _
1`
b1110101101111 d
b1100000110010 e
b11110101101111 h
b11100000110010 i
b11110101101111 l
b11100000110010 m
b00001010010001 n
b00011111001110 o
1t
b101001010111111 a"
b101001010111111 b"
1k"
b0111 n"
b101001010111111 o"
b101001010111111 p"
1q"
1(#
1*#
b00000000000000000000000000000000 /#
b00000000000000000000000000000000 0#
b11111111111111111111111100000000 5#
b11111111111111111111111100000000 6#
b00000000000000000000000000000000 7#
b00000000000000000000000000000000 8#
b00000000000000000000000000000000 <#
b00000000000000000000000000000000 =#
b11111111111111111111111100000000 >#
b11111111111111111111111100000000 ?#
b00000000000000000000000000000000 @#
b00000000000000000000000000000000 A#
b11111111111111111111111100000000 B#
b11111111111111111111111100000000 C#
b0000000000000000000000000000000 F#
b00000000000000000000000000000000 H#
b000000000000000000000000 K#
b0000000000000000000000000000000 Q#
b00000000000000000000000000000000 S#
b000000000000000000000000 V#
b0000000000000000000000000000000 \#
b11111111111111111111111100000000 ^#
b111111111111111111111111 a#
b0000000000000000000000000000000 g#
b11111111111111111111111100000000 i#
b111111111111111111111111 l#
#5500
08
09
0`
0t
0k"
0q"
0(#
#6000
b1101101011010 $
b1111101001000 %
b11111111111111111111111100000000 &
b11111111111111111111111100000000 '
18
19
b1101101011010 D
b1111101001000 E
b11111111111111111111111100000000 N
b11111111111111111111111100000000 O
b10 P
b0100 Q
b011111111111111 V
b000000000000000 W
b11111111111111111111111100000000 \
b11111111111111111111111100000000 ]
b1000 ^
b0100 _
1`
b1101101011010 d
b1111101001000 e
b11101101011010 h
b11111101001000 i
b11101101011010 l
b11111101001000 m
b00010010100110 n
b00000010111000 o
1t
1v
1w
b111111100000000 $"
b111111100000000 %"
b011111111111111 a"
b000000000000000 b"
1k"
b1000 n"
b011111111111111 o"
b000000000000000 p"
1q"
0s"
1(#
0*#
b11111111111111111111111100000000 /#
b11111111111111111111111100000000 0#
b00000000000000000000000000000000 5#
b00000000000000000000000000000000 6#
b11111111111111111111111100000000 7#
b11111111111111111111111100000000 8#
b11111111111111111111111100000000 <#
b11111111111111111111111100000000 =#
b11111111111111111111111000000000 >#
b11111111111111111111111000000000 ?#
b11111111111111111111111100000000 @#
b11111111111111111111111100000000 A#
b11111111111111111111111000000000 B#
b11111111111111111111111000000000 C#
b1111111111111111111111100000000 F#
b11111111111111111111111100000000 H#
b111111111111111111111111 K#
b1111111111111111111111100000000 Q#
b11111111111111111111111100000000 S#
b111111111111111111111111 V#
b1111111111111111111111100000000 \#
b11111111111111111111111000000000 ^#
b111111111111111111111110 a#
b1111111111111111111111100000000 g#
b11111111111111111111111000000000 i#
b111111111111111111111110 l#
#6500
08
09
0`
0t
0k"
0q"
0(#
#7000
b1111010011110 $
b1110111101000 %
b00000000000000000000000000000000 &
b00000000000000000000000000000000 '
18
19
b1111010011110 D
b1110111101000 E
b00000000000000000000000000000000 N
b00000000000000000000000000000000 O
b11 P
b0101 Q
b011101100100000 V
b110011110000010 W
b00000000000000000000000000000000 \
b00000000000000000000000000000000 ]
b1001 ^
b0101 _
1`
b1111010011110 d
b1110111101000 e
b11111010011110 h
b11110111101000 i
b11111010011110 l
b11110111101000 m
b00000101100010 n
b00001000011000 o
1t
b011101100100000 a"
b110011110000010 b"
1k"
b1001 n"
b011101100100000 o"
b110011110000010 p"
1q"
1(#
1*#
1+#
b00000000000000000000000000000000 /#
b00000000000000000000000000000000 0#
b11111111111111111111111100000000 5#
b11111111111111111111111100000000 6#
b00000000000000000000000000000000 7#
b00000000000000000000000000000000 8#
b00000000000000000000000000000000 <#
b00000000000000000000000000000000 =#
b11111111111111111111111100000000 >#
b11111111111111111111111100000000 ?#
b00000000000000000000000000000000 @#
b00000000000000000000000000000000 A#
b11111111111111111111111100000000 B#
b11111111111111111111111100000000 C#
b0000000000000000000000000000000 F#
b00000000000000000000000000000000 H#
b000000000000000000000000 K#
b0000000000000000000000000000000 Q#
b00000000000000000000000000000000 S#
b000000000000000000000000 V#
b0000000000000000000000000000000 \#
b11111111111111111111111100000000 ^#
b111111111111111111111111 a#
b0000000000000000000000000000000 g#
b11111111111111111111111100000000 i#
b111111111111111111111111 l#
#7500
08
09
0`
0t
0k"
0q"
0(#
#8000
b1010011100000 $
b0001010011000 %
b11111111111111111111111100000000 &
b11111111111111111111111100000000 '
18
19
b1010011100000 D
b0001010011000 E
b11111111111111111111111100000000 N
b11111111111111111111111100000000 O
b10 P
b0110 Q
b010110101000001 V
b101001010111111 W
b11111111111111111111111100000000 \
b11111111111111111111111100000000 ]
b1010 ^
b0110 _
1`
b1010011100000 d
b0001010011000 e
b11010011100000 h
b00001010011000 i
b11010011100000 l
b00001010011000 m
b00101100100000 n
b11110101101000 o
1t
b010110101000001 a"
b101001010111111 b"
1k"
b1010 n"
b010110101000001 o"
b101001010111111 p"
1q"
1s"
1(#
0*#
0+#
b11111111111111111111111100000000 /#
b11111111111111111111111100000000 0#
b00000000000000000000000000000000 5#
b00000000000000000000000000000000 6#
b11111111111111111111111100000000 7#
b11111111111111111111111100000000 8#
b11111111111111111111111100000000 <#
b11111111111111111111111100000000 =#
b11111111111111111111111000000000 >#
b11111111111111111111111000000000 ?#
b11111111111111111111111100000000 @#
b11111111111111111111111100000000 A#
b11111111111111111111111000000000 B#
b11111111111111111111111000000000 C#
b1111111111111111111111100000000 F#
b11111111111111111111111100000000 H#
b111111111111111111111111 K#
b1111111111111111111111100000000 Q#
b11111111111111111111111100000000 S#
b111111111111111111111111 V#
b1111111111111111111111100000000 \#
b11111111111111111111111000000000 ^#
b111111111111111111111110 a#
b1111111111111111111111100000000 g#
b11111111111111111111111000000000 i#
b111111111111111111111110 l#
#8500
08
09
0`
0t
0k"
0q"
0(#
#9000
b1111101111000 $
b1011001011000 %
b00000000000000000000000000000000 &
b00000000000000000000000000000000 '
18
19
b1111101111000 D
b1011001011000 E
b00000000000000000000000000000000 N
b00000000000000000000000000000000 O
b0111 Q
b001100001111110 V
b100010011100000 W
b00000000000000000000000000000000 \
b00000000000000000000000000000000 ]
b1011 ^
b0111 _
1`
b1111101111000 d
b1011001011000 e
b11111101111000 h
b11011001011000 i
b11111101111000 l
b11011001011000 m
b00000010001000 n
b00100110101000 o
1t
b001100001111110 a"
b100010011100000 b"
1k"
b1011 n"
b001100001111110 o"
b100010011100000 p"
1q"
1(#
1*#
b00000000000000000000000000000000 /#
b00000000000000000000000000000000 0#
b11111111111111111111111100000000 5#
b11111111111111111111111100000000 6#
b00000000000000000000000000000000 7#
b00000000000000000000000000000000 8#
b00000000000000000000000000000000 <#
b00000000000000000000000000000000 =#
b11111111111111111111111100000000 >#
b11111111111111111111111100000000 ?#
b00000000000000000000000000000000 @#
b00000000000000000000000000000000 A#
b11111111111111111111111100000000 B#
b11111111111111111111111100000000 C#
b0000000000000000000000000000000 F#
b00000000000000000000000000000000 H#
b000000000000000000000000 K#
b0000000000000000000000000000000 Q#
b00000000000000000000000000000000 S#
b000000000000000000000000 V#
b0000000000000000000000000000000 \#
b11111111111111111111111100000000 ^#
b111111111111111111111111 a#
b0000000000000000000000000000000 g#
b11111111111111111111111100000000 i#
b111111111111111111111111 l#
#9500
08
09
0`
0t
0k"
0q"
0(#
#10000
b0011100000110 $
b0100000001101 %
b11111111111111111111111100000000 &
b11111111111111111111111100000000 '
0,
0.
18
19
b0011100000110 D
b0100000001101 E
0H
0I
b11111111111111111111111100000000 N
b11111111111111111111111100000000 O
b00 P
b1000 Q
b01000110111110 R
b01010011000011 S
b111111100000000 T
b111111100000000 U
b011111111111111 V
b000000000000000 W
b111111111000000000000010000000 X
b111111111000000000000010000000 Y
b11111111111111111111111100000000 \
b11111111111111111111111100000000 ]
b1100 ^
b1000 _
1`
1b
b0011100000110 d
b0100000001101 e
b01000110111110 f
b01010011000011 g
b00001110110010 h
b00010010101001 i
b00101010111000 j
b00110010110110 k
b01000110111110 l
b01010011000011 m
b00001110110010 n
b00010010101001 o
1t
0v
0w
b01000110111110 y
b01010011000011 z
b111111100000000 {
b111111100000000 |
0""
0#"
b001000110111110 $"
b001010011000011 %"
b111111100000000 &"
b111111100000000 '"
b01000110111110 ("
b01010011000011 )"
b001001111000011 +"
b001000010111110 ,"
b110101000111101 -"
b110110101000010 ."
b001000010111110 /"
b001001111000011 0"
b110110101000010 1"
b110101000111101 2"
b11111100000000 5"
b01000110111110 6"
b001000010111110 7"
b01000110111110 9"
b0010000 :"
b010111110 ;"
b11111100000000 @"
b01010011000011 A"
b001001111000011 B"
b01010011000011 D"
b0010011 E"
b011000011 F"
b11111100000000 K"
b01000110111110 L"
b110110101000010 M"
0N"
b10111001000001 O"
b1101101 P"
b001000010 Q"
b11111100000000 V"
b01010011000011 W"
b110101000111101 X"
0Y"
b10101100111100 Z"
b1101010 ["
b000111101 \"
b111111100000000 _"
b111111100000000 `"
b011111111111111 a"
b000000000000000 b"
b111111111000000000000010000000 c"
b111111111000000000000010000000 d"
b111111110000000000000100000000 e"
b111111110000000000000100000000 g"
b1111111110000000000000100000001 i"
b1111111110000000000000100000001 j"
1k"
b1100 n"
b011111111111111 o"
b000000000000000 p"
1q"
0s"
b111111111000000000000010000000 u"
b111111111000000000000010000000 v"
b1111111111000000000000010000000 y"
b1111111111000000000000010000000 z"
b1111111111000000000000010000000 }"
b1111111111000000000000010000000 !#
b0000000000111111111111110000000 "#
b0000000000111111111111110000000 ##
1(#
0*#
b11111111111111111111111100000000 /#
b11111111111111111111111100000000 0#
b00000000000000000000000000000000 5#
b00000000000000000000000000000000 6#
b11111111111111111111111100000000 7#
b11111111111111111111111100000000 8#
b11111111111111111111111100000000 <#
b11111111111111111111111100000000 =#
b11111111111111111111111000000000 >#
b11111111111111111111111000000000 ?#
b11111111111111111111111100000000 @#
b11111111111111111111111100000000 A#
b11111111111111111111111000000000 B#
b11111111111111111111111000000000 C#
b1111111111111111111111100000000 F#
b11111111111111111111111100000000 H#
b111111111111111111111111 K#
b1111111111111111111111100000000 Q#
b11111111111111111111111100000000 S#
b111111111111111111111111 V#
b1111111111111111111111100000000 \#
b11111111111111111111111000000000 ^#
b111111111111111111111110 a#
b1111111111111111111111100000000 g#
b11111111111111111111111000000000 i#
b111111111111111111111110 l#
#10500
08
09
0`
0t
0k"
0q"
0(#
